Volume,Title,Author_name,filename
全唐詩,太宗皇帝,,CDF_IHEC_SB4002_01_02_0006-alto.xml
全唐詩,帝京篇十首,,CDF_IHEC_SB4002_01_02_0006-alto.xml
全唐詩,飲馬長城宿行,,CDF_IHEC_SB4002_01_02_0008-alto.xml
全唐詩,執契靜三邊,,CDF_IHEC_SB4002_01_02_0008-alto.xml
全唐詩,正日臨朝,,CDF_IHEC_SB4002_01_02_0009-alto.xml
全唐詩,幸武功慶善宮,,CDF_IHEC_SB4002_01_02_0009-alto.xml
全唐詩,過舊宅二首,,CDF_IHEC_SB4002_01_02_0010-alto.xml
全唐詩,還俠述懷,,CDF_IHEC_SB4002_01_02_0010-alto.xml
全唐詩,重幸武功,,CDF_IHEC_SB4002_01_02_0010-alto.xml
全唐詩,經破薛舉戰地,,CDF_IHEC_SB4002_01_02_0010-alto.xml
全唐詩,入漳關,,CDF_IHEC_SB4002_01_02_0011-alto.xml
全唐詩,於北平作,,CDF_IHEC_SB4002_01_02_0011-alto.xml
全唐詩,遼城望月,,CDF_IHEC_SB4002_01_02_0011-alto.xml
全唐詩,觀妖氛滅,,CDF_IHEC_SB4002_01_02_0011-alto.xml
全唐詩,密翠斑紅芳華花柳即目川岫聊以命篇,,CDF_IHEC_SB4002_01_02_0011-alto.xml
全唐詩,春日玄武門宴羣臣,,CDF_IHEC_SB4002_01_02_0011-alto.xml
全唐詩,登三臺言志,,CDF_IHEC_SB4002_01_02_0012-alto.xml
全唐詩,朝倫,,CDF_IHEC_SB4002_01_02_0012-alto.xml
全唐詩,渭濵,,CDF_IHEC_SB4002_01_02_0012-alto.xml
全唐詩,出獵,,CDF_IHEC_SB4002_01_02_0012-alto.xml
全唐詩,冬狩,,CDF_IHEC_SB4002_01_02_0012-alto.xml
全唐詩,春日望海,,CDF_IHEC_SB4002_01_02_0012-alto.xml
全唐詩,元日,,CDF_IHEC_SB4002_01_02_0013-alto.xml
全唐詩,初春登樓即目觀作述懷,,CDF_IHEC_SB4002_01_02_0013-alto.xml
全唐詩,臨洛水,,CDF_IHEC_SB4002_01_02_0013-alto.xml
全唐詩,歌,,CDF_IHEC_SB4002_01_02_0013-alto.xml
全唐詩,望終南山,,CDF_IHEC_SB4002_01_02_0013-alto.xml
全唐詩,儀鸞殿早秋,,CDF_IHEC_SB4002_01_02_0014-alto.xml
全唐詩,秋日即目,,CDF_IHEC_SB4002_01_02_0014-alto.xml
全唐詩,山閣晚秋,,CDF_IHEC_SB4002_01_02_0014-alto.xml
全唐詩,首春,,CDF_IHEC_SB4002_01_02_0014-alto.xml
全唐詩,初晴落景,,CDF_IHEC_SB4002_01_02_0014-alto.xml
全唐詩,初夏,,CDF_IHEC_SB4002_01_02_0014-alto.xml
全唐詩,度秋,,CDF_IHEC_SB4002_01_02_0014-alto.xml
全唐詩,秋日穀庾信體,,CDF_IHEC_SB4002_01_02_0015-alto.xml
全唐詩,賦尚書,,CDF_IHEC_SB4002_01_02_0015-alto.xml
全唐詩,秋暮言志,,CDF_IHEC_SB4002_01_02_0015-alto.xml
全唐詩,喜雪,,CDF_IHEC_SB4002_01_02_0015-alto.xml
全唐詩,詠司馬彪續漢志,,CDF_IHEC_SB4002_01_02_0016-alto.xml
全唐詩,詠風,,CDF_IHEC_SB4002_01_02_0016-alto.xml
全唐詩,詠雨,,CDF_IHEC_SB4002_01_02_0016-alto.xml
全唐詩,詠雪,,CDF_IHEC_SB4002_01_02_0016-alto.xml
全唐詩,賦得夏首啓節,,CDF_IHEC_SB4002_01_02_0016-alto.xml
全唐詩,賦得櫻桃,,CDF_IHEC_SB4002_01_02_0017-alto.xml
全唐詩,賦得李,,CDF_IHEC_SB4002_01_02_0017-alto.xml
全唐詩,賦得浮橋,,CDF_IHEC_SB4002_01_02_0017-alto.xml
全唐詩,賦得白日半,,CDF_IHEC_SB4002_01_02_0017-alto.xml
全唐詩,置酒坐飛閣,,CDF_IHEC_SB4002_01_02_0017-alto.xml
全唐詩,宋芙蓉,,CDF_IHEC_SB4002_01_02_0017-alto.xml
全唐詩,傷遼東戰亡,,CDF_IHEC_SB4002_01_02_0018-alto.xml
全唐詩,月晦,,CDF_IHEC_SB4002_01_02_0018-alto.xml
全唐詩,秋日,,CDF_IHEC_SB4002_01_02_0018-alto.xml
全唐詩,率微宮,,CDF_IHEC_SB4002_01_02_0018-alto.xml
全唐詩,謁幷州大興國寺詩,,CDF_IHEC_SB4002_01_02_0018-alto.xml
全唐詩,詠興國寺佛殷前嶠,,CDF_IHEC_SB4002_01_02_0018-alto.xml
全唐詩,望送魏微葬,,CDF_IHEC_SB4002_01_02_0018-alto.xml
全唐詩,憂,,CDF_IHEC_SB4002_01_02_0019-alto.xml
全唐詩,冬日臨昆明池,,CDF_IHEC_SB4002_01_02_0019-alto.xml
全唐詩,望雪,,CDF_IHEC_SB4002_01_02_0019-alto.xml
全唐詩,守歲,,CDF_IHEC_SB4002_01_02_0019-alto.xml
全唐詩,除夜,,CDF_IHEC_SB4002_01_02_0019-alto.xml
全唐詩,初秋夜坐,,CDF_IHEC_SB4002_01_02_0019-alto.xml
全唐詩,秋日二首,,CDF_IHEC_SB4002_01_02_0019-alto.xml
全唐詩,冬宵各為四韻,,CDF_IHEC_SB4002_01_02_0019-alto.xml
全唐詩,詠雨,,CDF_IHEC_SB4002_01_02_0020-alto.xml
全唐詩,賦得含峰雲,,CDF_IHEC_SB4002_01_02_0020-alto.xml
全唐詩,三層閣上置音聲,,CDF_IHEC_SB4002_01_02_0020-alto.xml
全唐詩,遠山澄碧霧,,CDF_IHEC_SB4002_01_02_0020-alto.xml
全唐詩,賦得花庭霧,,CDF_IHEC_SB4002_01_02_0020-alto.xml
全唐詩,春池柳,,CDF_IHEC_SB4002_01_02_0020-alto.xml
全唐詩,芳蘭,,CDF_IHEC_SB4002_01_02_0020-alto.xml
全唐詩,賦得殘菊,,CDF_IHEC_SB4002_01_02_0021-alto.xml
全唐詩,賦秋日懸清光賜房玄齡,,CDF_IHEC_SB4002_01_02_0021-alto.xml
全唐詩,堯）,,CDF_IHEC_SB4002_01_02_0021-alto.xml
全唐詩,詠桃,,CDF_IHEC_SB4002_01_02_0021-alto.xml
全唐詩,賦簾,,CDF_IHEC_SB4002_01_02_0021-alto.xml
全唐詩,詠烏代陳師道,,CDF_IHEC_SB4002_01_02_0021-alto.xml
全唐詩,詠飲馬,,CDF_IHEC_SB4002_01_02_0021-alto.xml
全唐詩,宴中山,,CDF_IHEC_SB4002_01_02_0022-alto.xml
全唐詩,餞中書侍郎來濟,,CDF_IHEC_SB4002_01_02_0022-alto.xml
全唐詩,深悲黃,,CDF_IHEC_SB4002_01_02_0022-alto.xml
全唐詩,於太原召侍臣賜宴守歲,,CDF_IHEC_SB4002_01_02_0022-alto.xml
全唐詩,詠燭二首,,CDF_IHEC_SB4002_01_02_0022-alto.xml
全唐詩,詠弓,,CDF_IHEC_SB4002_01_02_0022-alto.xml
全唐詩,賦得早雁出雲鳴,,CDF_IHEC_SB4002_01_02_0022-alto.xml
全唐詩,賜蕭瑀,,CDF_IHEC_SB4002_01_02_0023-alto.xml
全唐詩,賜房玄歠,,CDF_IHEC_SB4002_01_02_0023-alto.xml
全唐詩,遼東山夜臨秋,,CDF_IHEC_SB4002_01_02_0023-alto.xml
全唐詩,賜魏徵詩,,CDF_IHEC_SB4002_01_02_0023-alto.xml
全唐詩,兩儀殿賦柏梁體,,CDF_IHEC_SB4002_01_02_0023-alto.xml
全唐詩,賦得臨池柳,,CDF_IHEC_SB4002_01_02_0023-alto.xml
全唐詩,賦得臨池竹,,CDF_IHEC_SB4002_01_02_0023-alto.xml
全唐詩,賦得弱柳鳴秋蟬,,CDF_IHEC_SB4002_01_02_0023-alto.xml
全唐詩,探得李,,CDF_IHEC_SB4002_01_02_0023-alto.xml
全唐詩,詠小山,,CDF_IHEC_SB4002_01_02_0023-alto.xml
全唐詩,,,CDF_IHEC_SB4002_01_02_0024-alto.xml
全唐詩,高宗皇帝,,CDF_IHEC_SB4002_01_02_0024-alto.xml
全唐詩,太子納妃太平公主出降,,CDF_IHEC_SB4002_01_02_0024-alto.xml
全唐詩,句,,CDF_IHEC_SB4002_01_02_0024-alto.xml
全唐詩,謁慈恩寺題樊法師房,,CDF_IHEC_SB4002_01_02_0025-alto.xml
全唐詩,謁大慈恩寺,,CDF_IHEC_SB4002_01_02_0025-alto.xml
全唐詩,七夕宴懸圃二首,,CDF_IHEC_SB4002_01_02_0025-alto.xml
全唐詩,過溫湯,,CDF_IHEC_SB4002_01_02_0025-alto.xml
全唐詩,九月九日,,CDF_IHEC_SB4002_01_02_0025-alto.xml
全唐詩,九月九日幸臨渭亭登高得秋字,,CDF_IHEC_SB4002_01_02_0026-alto.xml
全唐詩,陶潛盈杷既浮九醴之歡畢卓持聲須盡一生之,,CDF_IHEC_SB4002_01_02_0026-alto.xml
全唐詩,守歲,,CDF_IHEC_SB4002_01_02_0026-alto.xml
全唐詩,咸亭殿宴近臣諸親柏梁體,,CDF_IHEC_SB4002_01_02_0026-alto.xml
全唐詩,中宗皇帝,,CDF_IHEC_SB4002_01_02_0026-alto.xml
全唐詩,中宗皇帝,,CDF_IHEC_SB4002_01_02_0026-alto.xml
全唐詩,十月誕辰內殿宴羣臣效柏梁體聯句,,CDF_IHEC_SB4002_01_02_0027-alto.xml
全唐詩,登驪山高頂寓目,,CDF_IHEC_SB4002_01_02_0027-alto.xml
全唐詩,幸秦始皇陵,,CDF_IHEC_SB4002_01_02_0027-alto.xml
全唐詩,立春日遊苑迎春,,CDF_IHEC_SB4002_01_02_0027-alto.xml
全唐詩,睿宗皇帝,,CDF_IHEC_SB4002_01_02_0028-alto.xml
全唐詩,石宗,,CDF_IHEC_SB4002_01_02_0028-alto.xml
全唐詩,或戚里宸筵王門,,CDF_IHEC_SB4002_01_02_0028-alto.xml
全唐詩,老席無不畢從,,CDF_IHEC_SB4002_01_02_0028-alto.xml
全唐詩,景龍四年正月五日移仗蓬萊宮御大明殿會,,CDF_IHEC_SB4002_01_02_0028-alto.xml
全唐詩,吐蕃騎馬之戲因重為柏梁體聯句,,CDF_IHEC_SB4002_01_02_0028-alto.xml
全唐詩,石宗,,CDF_IHEC_SB4002_01_02_0028-alto.xml
全唐詩,,,CDF_IHEC_SB4002_01_02_0029-alto.xml
全唐詩,明皇帝,,CDF_IHEC_SB4002_01_02_0029-alto.xml
全唐詩,過晉陽宮,,CDF_IHEC_SB4002_01_02_0029-alto.xml
全唐詩,賜諸州刺史以題座右,,CDF_IHEC_SB4002_01_02_0030-alto.xml
全唐詩,送忠州太守康,,CDF_IHEC_SB4002_01_02_0030-alto.xml
全唐詩,行次成臯途經先聖檎建德之所編思功業感,,CDF_IHEC_SB4002_01_02_0030-alto.xml
全唐詩,而賦詩,,CDF_IHEC_SB4002_01_02_0030-alto.xml
全唐詩,送李邕之任滑臺,,CDF_IHEC_SB4002_01_02_0031-alto.xml
全唐詩,端午三殿宴羣臣探得神字,,CDF_IHEC_SB4002_01_02_0031-alto.xml
全唐詩,人之竝作云爾,,CDF_IHEC_SB4002_01_02_0032-alto.xml
全唐詩,溫湯對雪,,CDF_IHEC_SB4002_01_02_0032-alto.xml
全唐詩,登蒲州逍遙樓,,CDF_IHEC_SB4002_01_02_0032-alto.xml
全唐詩,經河上公廟,,CDF_IHEC_SB4002_01_02_0032-alto.xml
全唐詩,過王藩墓,,CDF_IHEC_SB4002_01_02_0032-alto.xml
全唐詩,初人秦川路逢寒食,,CDF_IHEC_SB4002_01_02_0033-alto.xml
全唐詩,春臺望,,CDF_IHEC_SB4002_01_02_0033-alto.xml
全唐詩,過大竒宅探得歌字韻,,CDF_IHEC_SB4002_01_02_0033-alto.xml
全唐詩,同玉真公主過大山池,,CDF_IHEC_SB4002_01_02_0033-alto.xml
全唐詩,經鄒魯祭孔子而歎之,,CDF_IHEC_SB4002_01_02_0034-alto.xml
全唐詩,惟此溫泉是稱愈疾豈予獨受其福思與兆人,,CDF_IHEC_SB4002_01_02_0034-alto.xml
全唐詩,共之乘暇巡遊乃言其志,,CDF_IHEC_SB4002_01_02_0034-alto.xml
全唐詩,旋師喜捷,,CDF_IHEC_SB4002_01_02_0034-alto.xml
全唐詩,過老子廟,,CDF_IHEC_SB4002_01_02_0034-alto.xml
全唐詩,途次映州,,CDF_IHEC_SB4002_01_02_0034-alto.xml
全唐詩,野次喜雪,,CDF_IHEC_SB4002_01_02_0034-alto.xml
全唐詩,送賀知章歸四明,,CDF_IHEC_SB4002_01_02_0034-alto.xml
全唐詩,冊乃賦詩贈行,,CDF_IHEC_SB4002_01_02_0035-alto.xml
全唐詩,軒遊宮十五夜,,CDF_IHEC_SB4002_01_02_0035-alto.xml
全唐詩,觀拔河俗戲,,CDF_IHEC_SB4002_01_02_0035-alto.xml
全唐詩,同劉晃喜雨,,CDF_IHEC_SB4002_01_02_0035-alto.xml
全唐詩,千秋節賜羣臣鏡,,CDF_IHEC_SB4002_01_02_0035-alto.xml
全唐詩,賜道士鄧紫陽,,CDF_IHEC_SB4002_01_02_0035-alto.xml
全唐詩,幸蜀西至劍門,,CDF_IHEC_SB4002_01_02_0036-alto.xml
全唐詩,答司馬承禎上劍鏡,,CDF_IHEC_SB4002_01_02_0036-alto.xml
全唐詩,送趙法師還蜀因名山奠簡,,CDF_IHEC_SB4002_01_02_0036-alto.xml
全唐詩,送道士薛季昌還山,,CDF_IHEC_SB4002_01_02_0036-alto.xml
全唐詩,送玄同真人李抱朴謁濡山仙祠,,CDF_IHEC_SB4002_01_02_0036-alto.xml
全唐詩,春日出苑遊蟷,,CDF_IHEC_SB4002_01_02_0036-alto.xml
全唐詩,年三月二十七日,,CDF_IHEC_SB4002_01_02_0037-alto.xml
全唐詩,之以賞樂賦詩,,CDF_IHEC_SB4002_01_02_0038-alto.xml
全唐詩,同二相已下羣官樂遊園宴,,CDF_IHEC_SB4002_01_02_0038-alto.xml
全唐詩,春,,CDF_IHEC_SB4002_01_02_0039-alto.xml
全唐詩,早度蒲津關,,CDF_IHEC_SB4002_01_02_0039-alto.xml
全唐詩,途經華嶽,,CDF_IHEC_SB4002_01_02_0039-alto.xml
全唐詩,喜雪,,CDF_IHEC_SB4002_01_02_0039-alto.xml
全唐詩,崇儒引席珍集賢招,,CDF_IHEC_SB4002_01_02_0039-alto.xml
全唐詩,幸鳳泉湯,,CDF_IHEC_SB4002_01_02_0040-alto.xml
全唐詩,南出雀鼠谷答張說,,CDF_IHEC_SB4002_01_02_0040-alto.xml
全唐詩,賜崔日知往潞州,,CDF_IHEC_SB4002_01_02_0040-alto.xml
全唐詩,為趙法師別造精院過院賦詩,,CDF_IHEC_SB4002_01_02_0040-alto.xml
全唐詩,意云爾,,CDF_IHEC_SB4002_01_02_0040-alto.xml
全唐詩,端午,,CDF_IHEC_SB4002_01_02_0041-alto.xml
全唐詩,春中興慶宮輔宴,,CDF_IHEC_SB4002_01_02_0041-alto.xml
全唐詩,命宴東,,CDF_IHEC_SB4002_01_02_0042-alto.xml
全唐詩,堂賜詩,,CDF_IHEC_SB4002_01_02_0042-alto.xml
全唐詩,早登太行山中言志,,CDF_IHEC_SB4002_01_02_0042-alto.xml
全唐詩,運臨汾之筆,,CDF_IHEC_SB4002_01_02_0042-alto.xml
全唐詩,千秋節宴,,CDF_IHEC_SB4002_01_02_0042-alto.xml
全唐詩,平胡,,CDF_IHEC_SB4002_01_02_0043-alto.xml
全唐詩,遊興慶宮作,,CDF_IHEC_SB4002_01_02_0043-alto.xml
全唐詩,言志歌以永言情發於衷率題此仕,,CDF_IHEC_SB4002_01_02_0043-alto.xml
全唐詩,送張說巡邊,,CDF_IHEC_SB4002_01_02_0043-alto.xml
全唐詩,餞王晙迅邊,,CDF_IHEC_SB4002_01_02_0044-alto.xml
全唐詩,巡省途次上黨舊宮賦,,CDF_IHEC_SB4002_01_02_0044-alto.xml
全唐詩,擊筑慷慨酌桂,,CDF_IHEC_SB4002_01_02_0044-alto.xml
全唐詩,漳關口號,,CDF_IHEC_SB4002_01_02_0045-alto.xml
全唐詩,千秋節賜羣臣鏡,,CDF_IHEC_SB4002_01_02_0045-alto.xml
全唐詩,續薛令之題壁,,CDF_IHEC_SB4002_01_02_0045-alto.xml
全唐詩,云令之遂謝病歸,,CDF_IHEC_SB4002_01_02_0045-alto.xml
全唐詩,送胡真師還西山,,CDF_IHEC_SB4002_01_02_0045-alto.xml
全唐詩,過大竒山池題石壁,,CDF_IHEC_SB4002_01_02_0045-alto.xml
全唐詩,題梅妃畫真,,CDF_IHEC_SB4002_01_02_0045-alto.xml
全唐詩,鷯鴒頌,,CDF_IHEC_SB4002_01_02_0045-alto.xml
全唐詩,明皇帝,,CDF_IHEC_SB4002_01_02_0045-alto.xml
全唐詩,云,,CDF_IHEC_SB4002_01_02_0046-alto.xml
全唐詩,倪隅吟,,CDF_IHEC_SB4002_01_02_0046-alto.xml
全唐詩,句,,CDF_IHEC_SB4002_01_02_0046-alto.xml
全唐詩,,,CDF_IHEC_SB4002_01_02_0047-alto.xml
全唐詩,肅宗皇帝,,CDF_IHEC_SB4002_01_02_0047-alto.xml
全唐詩,首,,CDF_IHEC_SB4002_01_02_0047-alto.xml
全唐詩,延英殿玉靈芝詩三章章八句,,CDF_IHEC_SB4002_01_02_0047-alto.xml
全唐詩,製詩,,CDF_IHEC_SB4002_01_02_0047-alto.xml
全唐詩,德宗皇帝,,CDF_IHEC_SB4002_01_02_0048-alto.xml
全唐詩,中和節日宴百僚賜詩,,CDF_IHEC_SB4002_01_02_0048-alto.xml
全唐詩,重陽日賜宴曲江亭賦六韻詩用清字,,CDF_IHEC_SB4002_01_02_0049-alto.xml
全唐詩,九月十八賜百寮追賞因書所懷,,CDF_IHEC_SB4002_01_02_0049-alto.xml
全唐詩,送徐州張建封還鎮,,CDF_IHEC_SB4002_01_02_0050-alto.xml
全唐詩,麟德殿宴百僚,,CDF_IHEC_SB4002_01_02_0050-alto.xml
全唐詩,元日退朝觀軍仗歸營,,CDF_IHEC_SB4002_01_02_0050-alto.xml
全唐詩,中和節賜羣臣宴賦七韻,,CDF_IHEC_SB4002_01_02_0050-alto.xml
全唐詩,三日書懷因示百僚,,CDF_IHEC_SB4002_01_02_0050-alto.xml
全唐詩,重陽日中外同歡以詩言志因示羣宮,,CDF_IHEC_SB4002_01_02_0051-alto.xml
全唐詩,重陽日即事,,CDF_IHEC_SB4002_01_02_0051-alto.xml
全唐詩,豐年多慶九日示懷,,CDF_IHEC_SB4002_01_02_0051-alto.xml
全唐詩,七月十五日題章敬寺,,CDF_IHEC_SB4002_01_02_0051-alto.xml
全唐詩,九日絕句,,CDF_IHEC_SB4002_01_02_0052-alto.xml
全唐詩,文宗皇帝,,CDF_IHEC_SB4002_01_02_0052-alto.xml
全唐詩,暮春喜雨詩,,CDF_IHEC_SB4002_01_02_0052-alto.xml
全唐詩,題程修已竹障,,CDF_IHEC_SB4002_01_02_0053-alto.xml
全唐詩,上元日二首,,CDF_IHEC_SB4002_01_02_0053-alto.xml
全唐詩,夏日聯句,,CDF_IHEC_SB4002_01_02_0053-alto.xml
全唐詩,宣宗皇帝,,CDF_IHEC_SB4002_01_02_0053-alto.xml
全唐詩,百丈山,,CDF_IHEC_SB4002_01_02_0054-alto.xml
全唐詩,弔白居易,,CDF_IHEC_SB4002_01_02_0054-alto.xml
全唐詩,幸華嚴寺,,CDF_IHEC_SB4002_01_02_0054-alto.xml
全唐詩,重陽錫宴羣巨,,CDF_IHEC_SB4002_01_02_0054-alto.xml
全唐詩,題涇縣水西寺,,CDF_IHEC_SB4002_01_02_0054-alto.xml
全唐詩,瀑布聯句,,CDF_IHEC_SB4002_01_02_0055-alto.xml
全唐詩,史誤,,CDF_IHEC_SB4002_01_02_0055-alto.xml
全唐詩,句,,CDF_IHEC_SB4002_01_02_0055-alto.xml
全唐詩,昭宗皇帝,,CDF_IHEC_SB4002_01_02_0055-alto.xml
全唐詩,詠雷句,,CDF_IHEC_SB4002_01_02_0055-alto.xml
全唐詩,,,CDF_IHEC_SB4002_01_02_0056-alto.xml
全唐詩,文德皇后,,CDF_IHEC_SB4002_01_02_0056-alto.xml
全唐詩,春遊曲,,CDF_IHEC_SB4002_01_02_0056-alto.xml
全唐詩,則天皇后,,CDF_IHEC_SB4002_01_02_0056-alto.xml
全唐詩,第二,,CDF_IHEC_SB4002_01_02_0057-alto.xml
全唐詩,第三,,CDF_IHEC_SB4002_01_02_0057-alto.xml
全唐詩,第四,,CDF_IHEC_SB4002_01_02_0057-alto.xml
全唐詩,曳鼎歌,,CDF_IHEC_SB4002_01_02_0057-alto.xml
全唐詩,唐享昊天樂,,CDF_IHEC_SB4002_01_02_0057-alto.xml
全唐詩,第一,,CDF_IHEC_SB4002_01_02_0057-alto.xml
全唐詩,第五,,CDF_IHEC_SB4002_01_02_0058-alto.xml
全唐詩,第六,,CDF_IHEC_SB4002_01_02_0058-alto.xml
全唐詩,第七,,CDF_IHEC_SB4002_01_02_0058-alto.xml
全唐詩,第八,,CDF_IHEC_SB4002_01_02_0058-alto.xml
全唐詩,第九,,CDF_IHEC_SB4002_01_02_0058-alto.xml
全唐詩,第十,,CDF_IHEC_SB4002_01_02_0058-alto.xml
全唐詩,第十一,,CDF_IHEC_SB4002_01_02_0058-alto.xml
全唐詩,第十二,,CDF_IHEC_SB4002_01_02_0058-alto.xml
全唐詩,則天皇白,,CDF_IHEC_SB4002_01_02_0058-alto.xml
全唐詩,仰恩徽,,CDF_IHEC_SB4002_01_02_0059-alto.xml
全唐詩,唐明堂樂章,,CDF_IHEC_SB4002_01_02_0059-alto.xml
全唐詩,外辨將出,,CDF_IHEC_SB4002_01_02_0059-alto.xml
全唐詩,皇帝行,,CDF_IHEC_SB4002_01_02_0059-alto.xml
全唐詩,皇嗣出入升降,,CDF_IHEC_SB4002_01_02_0059-alto.xml
全唐詩,迎送王公,,CDF_IHEC_SB4002_01_02_0059-alto.xml
全唐詩,登歌,,CDF_IHEC_SB4002_01_02_0059-alto.xml
全唐詩,配饗,,CDF_IHEC_SB4002_01_02_0059-alto.xml
全唐詩,宮音,,CDF_IHEC_SB4002_01_02_0059-alto.xml
全唐詩,角音,,CDF_IHEC_SB4002_01_02_0060-alto.xml
全唐詩,徵音,,CDF_IHEC_SB4002_01_02_0060-alto.xml
全唐詩,商音,,CDF_IHEC_SB4002_01_02_0060-alto.xml
全唐詩,羽音,,CDF_IHEC_SB4002_01_02_0060-alto.xml
全唐詩,方殷稔歲,,CDF_IHEC_SB4002_01_02_0060-alto.xml
全唐詩,唐大饗拜洛樂章,,CDF_IHEC_SB4002_01_02_0060-alto.xml
全唐詩,昭和,,CDF_IHEC_SB4002_01_02_0060-alto.xml
全唐詩,致和,,CDF_IHEC_SB4002_01_02_0060-alto.xml
全唐詩,咸和,,CDF_IHEC_SB4002_01_02_0061-alto.xml
全唐詩,九和,,CDF_IHEC_SB4002_01_02_0061-alto.xml
全唐詩,拜洛,,CDF_IHEC_SB4002_01_02_0061-alto.xml
全唐詩,顯和,,CDF_IHEC_SB4002_01_02_0061-alto.xml
全唐詩,昭和,,CDF_IHEC_SB4002_01_02_0061-alto.xml
全唐詩,敬和,,CDF_IHEC_SB4002_01_02_0061-alto.xml
全唐詩,齊和,,CDF_IHEC_SB4002_01_02_0061-alto.xml
全唐詩,德和,,CDF_IHEC_SB4002_01_02_0062-alto.xml
全唐詩,禋和,,CDF_IHEC_SB4002_01_02_0062-alto.xml
全唐詩,通和,,CDF_IHEC_SB4002_01_02_0062-alto.xml
全唐詩,歸和,,CDF_IHEC_SB4002_01_02_0062-alto.xml
全唐詩,歸和,,CDF_IHEC_SB4002_01_02_0062-alto.xml
全唐詩,唐武氏享先廟樂章,,CDF_IHEC_SB4002_01_02_0062-alto.xml
全唐詩,早春夜宴,,CDF_IHEC_SB4002_01_02_0062-alto.xml
全唐詩,遊九龍潭,,CDF_IHEC_SB4002_01_02_0063-alto.xml
全唐詩,贈胡天師,,CDF_IHEC_SB4002_01_02_0063-alto.xml
全唐詩,從駕幸少林寺,,CDF_IHEC_SB4002_01_02_0063-alto.xml
全唐詩,用述悲懷,,CDF_IHEC_SB4002_01_02_0063-alto.xml
全唐詩,石宗,,CDF_IHEC_SB4002_01_02_0063-alto.xml
全唐詩,臘日宣詔幸上苑,,CDF_IHEC_SB4002_01_02_0063-alto.xml
全唐詩,如意銀,,CDF_IHEC_SB4002_01_02_0064-alto.xml
全唐詩,製袍字賜狄仁傑,,CDF_IHEC_SB4002_01_02_0064-alto.xml
全唐詩,徐賢妃,,CDF_IHEC_SB4002_01_02_0064-alto.xml
全唐詩,擬小山篇,,CDF_IHEC_SB4002_01_02_0064-alto.xml
全唐詩,長門怨,,CDF_IHEC_SB4002_01_02_0064-alto.xml
全唐詩,秋風函谷應詔,,CDF_IHEC_SB4002_01_02_0064-alto.xml
全唐詩,賦得北方有佳人,,CDF_IHEC_SB4002_01_02_0064-alto.xml
全唐詩,進太宗,,CDF_IHEC_SB4002_01_02_0065-alto.xml
全唐詩,上官昭容,,CDF_IHEC_SB4002_01_02_0065-alto.xml
全唐詩,奉和聖製立春日侍宴內殿出翦綵花應制,,CDF_IHEC_SB4002_01_02_0065-alto.xml
全唐詩,酒,,CDF_IHEC_SB4002_01_02_0065-alto.xml
全唐詩,綵書怨,,CDF_IHEC_SB4002_01_02_0065-alto.xml
全唐詩,駕幸三會寺應制,,CDF_IHEC_SB4002_01_02_0066-alto.xml
全唐詩,駕幸新豐溫泉宮獻詩三首,,CDF_IHEC_SB4002_01_02_0066-alto.xml
全唐詩,句,,CDF_IHEC_SB4002_01_02_0068-alto.xml
全唐詩,楊貴妃,,CDF_IHEC_SB4002_01_02_0068-alto.xml
全唐詩,贈張雲容舞,,CDF_IHEC_SB4002_01_02_0068-alto.xml
全唐詩,江妃,,CDF_IHEC_SB4002_01_02_0068-alto.xml
全唐詩,謝賜珍珠,,CDF_IHEC_SB4002_01_02_0068-alto.xml
全唐詩,,,CDF_IHEC_SB4002_01_02_0069-alto.xml
全唐詩,章懷太子,,CDF_IHEC_SB4002_01_02_0069-alto.xml
全唐詩,黃臺瓜辭,,CDF_IHEC_SB4002_01_02_0069-alto.xml
全唐詩,韓王元嘉,,CDF_IHEC_SB4002_01_02_0069-alto.xml
全唐詩,奉和聖製過溫湯,,CDF_IHEC_SB4002_01_02_0070-alto.xml
全唐詩,信安王禕,,CDF_IHEC_SB4002_01_02_0070-alto.xml
全唐詩,石橋,,CDF_IHEC_SB4002_01_02_0070-alto.xml
全唐詩,奉和同太子監守違緣,,CDF_IHEC_SB4002_01_02_0070-alto.xml
全唐詩,越王貞,,CDF_IHEC_SB4002_01_02_0070-alto.xml
全唐詩,,,CDF_IHEC_SB4002_01_02_0071-alto.xml
全唐詩,宜芬公主,,CDF_IHEC_SB4002_01_02_0071-alto.xml
全唐詩,虛池驛題屏風,,CDF_IHEC_SB4002_01_02_0071-alto.xml
全唐詩,女學士宋氏若華,,CDF_IHEC_SB4002_01_02_0071-alto.xml
全唐詩,嘲陸畼,,CDF_IHEC_SB4002_01_02_0072-alto.xml
全唐詩,尚宮宋氏若昭,,CDF_IHEC_SB4002_01_02_0072-alto.xml
全唐詩,奉和御製麟德殿宴百僚應制,,CDF_IHEC_SB4002_01_02_0072-alto.xml
全唐詩,尚宮宋氏若憲,,CDF_IHEC_SB4002_01_02_0072-alto.xml
全唐詩,奉和御製麟德殿宴百官,,CDF_IHEC_SB4002_01_02_0072-alto.xml
全唐詩,鮑氏君徽,,CDF_IHEC_SB4002_01_02_0072-alto.xml
全唐詩,奉和麟德殿宴百僚應與,,CDF_IHEC_SB4002_01_02_0073-alto.xml
全唐詩,關山月,,CDF_IHEC_SB4002_01_02_0073-alto.xml
全唐詩,惜花吟,,CDF_IHEC_SB4002_01_02_0073-alto.xml
全唐詩,東亭荼宴,,CDF_IHEC_SB4002_01_02_0073-alto.xml
全唐詩,蕭妃,,CDF_IHEC_SB4002_01_02_0073-alto.xml
全唐詩,夜夢,,CDF_IHEC_SB4002_01_02_0073-alto.xml
全唐詩,,,CDF_IHEC_SB4002_01_02_0074-alto.xml
全唐詩,南唐先主李昇,,CDF_IHEC_SB4002_01_02_0074-alto.xml
全唐詩,詠燈,,CDF_IHEC_SB4002_01_02_0074-alto.xml
全唐詩,嗣主璟,,CDF_IHEC_SB4002_01_02_0074-alto.xml
全唐詩,遊後湖賞蓮花,,CDF_IHEC_SB4002_01_02_0074-alto.xml
全唐詩,後主煜,,CDF_IHEC_SB4002_01_02_0075-alto.xml
全唐詩,九月十日偶書,,CDF_IHEC_SB4002_01_02_0075-alto.xml
全唐詩,義方登樓賦,,CDF_IHEC_SB4002_01_02_0075-alto.xml
全唐詩,句,,CDF_IHEC_SB4002_01_02_0075-alto.xml
全唐詩,秋鶯,,CDF_IHEC_SB4002_01_02_0076-alto.xml
全唐詩,病起題山舎壁,,CDF_IHEC_SB4002_01_02_0076-alto.xml
全唐詩,送鄧王二十弟從益牧宣城,,CDF_IHEC_SB4002_01_02_0076-alto.xml
全唐詩,渡中江望石城泣下,,CDF_IHEC_SB4002_01_02_0076-alto.xml
全唐詩,輓辭,,CDF_IHEC_SB4002_01_02_0076-alto.xml
全唐詩,悼詩,,CDF_IHEC_SB4002_01_02_0077-alto.xml
全唐詩,感懷,,CDF_IHEC_SB4002_01_02_0077-alto.xml
全唐詩,梅花,,CDF_IHEC_SB4002_01_02_0077-alto.xml
全唐詩,又,,CDF_IHEC_SB4002_01_02_0077-alto.xml
全唐詩,書靈筵手巾,,CDF_IHEC_SB4002_01_02_0077-alto.xml
全唐詩,書能）背,,CDF_IHEC_SB4002_01_02_0077-alto.xml
全唐詩,病中感懷,,CDF_IHEC_SB4002_01_02_0077-alto.xml
全唐詩,病中書事,,CDF_IHEC_SB4002_01_02_0077-alto.xml
全唐詩,賜宮人慶奴,,CDF_IHEC_SB4002_01_02_0078-alto.xml
全唐詩,題金樓子後,,CDF_IHEC_SB4002_01_02_0078-alto.xml
全唐詩,也詩以慨之,,CDF_IHEC_SB4002_01_02_0078-alto.xml
全唐詩,切,,CDF_IHEC_SB4002_01_02_0078-alto.xml
全唐詩,吉王從謙,,CDF_IHEC_SB4002_01_02_0079-alto.xml
全唐詩,觀棊,,CDF_IHEC_SB4002_01_02_0079-alto.xml
全唐詩,韓王從善,,CDF_IHEC_SB4002_01_02_0079-alto.xml
全唐詩,蕃薇詩一首十八韻呈東海侍郎徐鉉,,CDF_IHEC_SB4002_01_02_0079-alto.xml
全唐詩,後主衍,,CDF_IHEC_SB4002_01_02_0080-alto.xml
全唐詩,幸秦川上梓漳山,,CDF_IHEC_SB4002_01_02_0080-alto.xml
全唐詩,題劍門,,CDF_IHEC_SB4002_01_02_0080-alto.xml
全唐詩,過白衛嶺和韓昭,,CDF_IHEC_SB4002_01_02_0080-alto.xml
全唐詩,蜀高祖王建,,CDF_IHEC_SB4002_01_02_0080-alto.xml
全唐詩,贈別唐太師道襲,,CDF_IHEC_SB4002_01_02_0080-alto.xml
全唐詩,宮詞,,CDF_IHEC_SB4002_01_02_0081-alto.xml
全唐詩,醉救詞,,CDF_IHEC_SB4002_01_02_0081-alto.xml
全唐詩,巡衣錦軍製還鄉歌,,CDF_IHEC_SB4002_01_02_0081-alto.xml
全唐詩,沒孑期歌,,CDF_IHEC_SB4002_01_02_0082-alto.xml
全唐詩,句,,CDF_IHEC_SB4002_01_02_0082-alto.xml
全唐詩,後王錢俶,,CDF_IHEC_SB4002_01_02_0082-alto.xml
全唐詩,宮中作,,CDF_IHEC_SB4002_01_02_0082-alto.xml
全唐詩,後蜀嗣主孟泉,,CDF_IHEC_SB4002_01_02_0082-alto.xml
全唐詩,篇,,CDF_IHEC_SB4002_01_02_0082-alto.xml
全唐詩,避暑摩討池上作,,CDF_IHEC_SB4002_01_02_0082-alto.xml
全唐詩,,,CDF_IHEC_SB4002_01_02_0083-alto.xml
全唐詩,蜀太后徐氐,,CDF_IHEC_SB4002_01_02_0083-alto.xml
全唐詩,丈人觀,,CDF_IHEC_SB4002_01_02_0083-alto.xml
全唐詩,玄都觀,,CDF_IHEC_SB4002_01_02_0083-alto.xml
全唐詩,閩王王繼鵬,,CDF_IHEC_SB4002_01_02_0083-alto.xml
全唐詩,㧗葉翹諫書紙尾,,CDF_IHEC_SB4002_01_02_0083-alto.xml
全唐詩,丈人觀謁先帝御容,,CDF_IHEC_SB4002_01_02_0084-alto.xml
全唐詩,題金華宮,,CDF_IHEC_SB4002_01_02_0084-alto.xml
全唐詩,丹景山至德寺,,CDF_IHEC_SB4002_01_02_0084-alto.xml
全唐詩,題彭州陽平化,,CDF_IHEC_SB4002_01_02_0084-alto.xml
全唐詩,三學山夜看聖燈,,CDF_IHEC_SB4002_01_02_0084-alto.xml
全唐詩,題天迴驛,,CDF_IHEC_SB4002_01_02_0084-alto.xml
全唐詩,題金華宮,,CDF_IHEC_SB4002_01_02_0085-alto.xml
全唐詩,和題丹景山至德寺,,CDF_IHEC_SB4002_01_02_0085-alto.xml
全唐詩,題彭州陽平化,,CDF_IHEC_SB4002_01_02_0085-alto.xml
全唐詩,蜀太妃徐氏,,CDF_IHEC_SB4002_01_02_0085-alto.xml
全唐詩,丈人觀,,CDF_IHEC_SB4002_01_02_0085-alto.xml
全唐詩,玄都觀,,CDF_IHEC_SB4002_01_02_0085-alto.xml
全唐詩,游丈人觀謁先帝御容,,CDF_IHEC_SB4002_01_02_0085-alto.xml
全唐詩,三學山夜看聖燈,,CDF_IHEC_SB4002_01_02_0086-alto.xml
全唐詩,題天迴驛,,CDF_IHEC_SB4002_01_02_0086-alto.xml
