Volume,Title,Author_name,filename
,相臺書塾刊正九經三傳沿革例,,CDF_IHEC_FX2_13_97_0006_alto.xml
,書本,,CDF_IHEC_FX2_13_97_0007_alto.xml
,字畫,,CDF_IHEC_FX2_13_97_0009_alto.xml
,註文,,CDF_IHEC_FX2_13_97_0010_alto.xml
,音釋,,CDF_IHEC_FX2_13_97_0012_alto.xml
,句讀,,CDF_IHEC_FX2_13_97_0027_alto.xml
,脫簡,,CDF_IHEC_FX2_13_97_0028_alto.xml
,考異,,CDF_IHEC_FX2_13_97_0028_alto.xml
,公羊穀梁傳,,CDF_IHEC_FX2_13_97_0037_alto.xml
,九經三傳沿革例,,CDF_IHEC_FX2_13_97_0039_alto.xml
