title,volume,dynasty,author,function
昌武段氏詩義指南,一卷,宋,段昌武,撰
離騷集傳,一卷,宋,,
江淮異人錄,一卷,宋,吳淑,撰
慶元黨禁,一卷,宋,闕名,撰
酒經,三卷,宋,朱肱,撰
山居新語,一卷,元,楊瑀,撰
鬼董,五卷,宋,沈氏,撰
墨史,三卷,元,陸友,撰
龔安節先生畫訣,一卷,清,龔賢,撰
畫筌,一卷,清,笪重光,撰
,,清,,
,,清,,
今水經,一卷,清,黃宗羲,撰
佐治藥言,一卷,清,汪輝祖,撰
