Volume,Title,Author_name,filename
全唐詩,蜀太妃徐氏,,CDF_IHEC_SB4002_01_02_0085-alto.xml
全唐詩,丈人觀,,CDF_IHEC_SB4002_01_02_0085-alto.xml
全唐詩,玄都觀,,CDF_IHEC_SB4002_01_02_0085-alto.xml
全唐詩,游丈人觀謁先帝御容,,CDF_IHEC_SB4002_01_02_0085-alto.xml
全唐詩,三學山夜看聖燈,,CDF_IHEC_SB4002_01_02_0086-alto.xml
全唐詩,題天迴驛,,CDF_IHEC_SB4002_01_02_0086-alto.xml
