Volume,Title,Author_name,filename
全唐詩,德宗皇帝,,CDF_IHEC_SB4002_01_02_0048-alto.xml
全唐詩,中和節日宴百僚賜詩,,CDF_IHEC_SB4002_01_02_0048-alto.xml
全唐詩,重陽日賜宴曲江亭賦六韻詩用清字,,CDF_IHEC_SB4002_01_02_0049-alto.xml
全唐詩,九月十八賜百寮追賞因書所懷,,CDF_IHEC_SB4002_01_02_0049-alto.xml
全唐詩,送徐州張建封還鎮,,CDF_IHEC_SB4002_01_02_0050-alto.xml
全唐詩,麟德殿宴百僚,,CDF_IHEC_SB4002_01_02_0050-alto.xml
全唐詩,元日退朝觀軍仗歸營,,CDF_IHEC_SB4002_01_02_0050-alto.xml
全唐詩,中和節賜羣臣宴賦七韻,,CDF_IHEC_SB4002_01_02_0050-alto.xml
全唐詩,三日書懷因示百僚,,CDF_IHEC_SB4002_01_02_0050-alto.xml
全唐詩,重陽日中外同歡以詩言志因示羣宮,,CDF_IHEC_SB4002_01_02_0051-alto.xml
全唐詩,重陽日即事,,CDF_IHEC_SB4002_01_02_0051-alto.xml
全唐詩,豐年多慶九日示懷,,CDF_IHEC_SB4002_01_02_0051-alto.xml
全唐詩,七月十五日題章敬寺,,CDF_IHEC_SB4002_01_02_0051-alto.xml
全唐詩,九日絕句,,CDF_IHEC_SB4002_01_02_0052-alto.xml
