Volume,Title,Author_name,filename
全唐詩,蜀高祖王建,,CDF_IHEC_SB4002_01_02_0080-alto.xml
全唐詩,贈別唐太師道襲,,CDF_IHEC_SB4002_01_02_0080-alto.xml
全唐詩,宮詞,,CDF_IHEC_SB4002_01_02_0081-alto.xml
全唐詩,醉救詞,,CDF_IHEC_SB4002_01_02_0081-alto.xml
全唐詩,巡衣錦軍製還鄉歌,,CDF_IHEC_SB4002_01_02_0081-alto.xml
全唐詩,沒孑期歌,,CDF_IHEC_SB4002_01_02_0082-alto.xml
全唐詩,句,,CDF_IHEC_SB4002_01_02_0082-alto.xml
