,index,poem_number,poem_number_in_type,file_name,Han,Ce,Type_number,Type_name,Type_remark,Subtype_number,Subtype_name,Volume,section_number,section_name,group_poem_name,poem_name,poem_altname,poem_preface,author_name,author_id,prefact_text,poem_text,ckp_text_id
0,47,,,type-houshusizhumengchang,,,,後蜀嗣主孟㫤,,,,卷8,,,,,,,,,,,
1,48,,p001,type-houshusizhumengchang_p001,,,,後蜀嗣主孟㫤,,,,卷8,,,,避暑摩訶池上作,,,後蜀嗣主孟㫤,,,,
