,index,poem_number,poem_number_in_type,file_name,Han,Ce,Type_number,Type_name,Type_remark,Subtype_number,Subtype_name,Volume,section_number,section_name,group_poem_name,poem_name,poem_altname,poem_preface,author_name,author_id,prefact_text,poem_text,ckp_text_id
0,39,,,type-wuyuewangqianliu,,,,吳越王錢鏐,,,,卷8,,,,,,,,,,,
1,40,,p001,type-wuyuewangqianliu_p001,,,,吳越王錢鏐,,,,卷8,,,,巡衣錦軍製還鄉歌,,,吳越王錢鏐,,,,
2,41,,p002-p003,type-wuyuewangqianliu_p002-p003,,,,吳越王錢鏐,,,,卷8,,,沒了期歌二首,,,,吳越王錢鏐,,,,
3,42,,p002,type-wuyuewangqianliu_p002-p003_p002,,,,吳越王錢鏐,,,,卷8,,,沒了期歌二首,沒了期歌二首之一,,,吳越王錢鏐,,,,
4,43,,p003,type-wuyuewangqianliu_p002-p003_p003,,,,吳越王錢鏐,,,,卷8,,,沒了期歌二首,沒了期歌二首之二,,,吳越王錢鏐,,,,
5,44,,p004,type-wuyuewangqianliu_p004,,,,吳越王錢鏐,,,,卷8,,,,句,,,吳越王錢鏐,,,,
