,index,poem_number,poem_number_in_type,file_name,Han,Ce,Type_number,Type_name,Type_remark,Subtype_number,Subtype_name,Volume,section_number,section_name,group_poem_name,poem_name,poem_altname,poem_preface,author_name,author_id,prefact_text,poem_text,ckp_text_id
0,40,,,type-zhaozonghuangdi,,,,昭宗皇帝,,,,卷4,,,,,,,,,,,
1,41,,p001,type-zhaozonghuangdi_p001,,,,昭宗皇帝,,,,卷4,,,,詠雷句,,,昭宗皇帝,,,,
