,index,poem_number,poem_number_in_type,file_name,Han,Ce,Type_number,Type_name,Type_remark,Subtype_number,Subtype_name,Volume,section_number,section_name,group_poem_name,poem_name,poem_altname,poem_preface,author_name,author_id,prefact_text,poem_text,ckp_text_id
0,32,,,type-houzhuyan,,,,後主衍,,,,卷8,,,,,,,,,,,
1,33,,p001,type-houzhuyan_p001,,,,後主衍,,,,卷8,,,,幸秦川上梓潼山,,,後主衍,,,,
2,34,,p002,type-houzhuyan_p002,,,,後主衍,,,,卷8,,,,題劍門,,,後主衍,,,,
3,35,,p003,type-houzhuyan_p003,,,,後主衍,,,,卷8,,,,過白衛嶺和韓昭,,,後主衍,,,,
4,36,,p004,type-houzhuyan_p004,,,,後主衍,,,,卷8,,,,宮詞,,,後主衍,,,,
5,37,,p005,type-houzhuyan_p005,,,,後主衍,,,,卷8,,,,醉妝詞,,,後主衍,,,,
6,38,,p006,type-houzhuyan_p006,,,,後主衍,,,,卷8,,,,句,,,後主衍,,,,
