,index,poem_number,poem_number_in_type,file_name,Han,Ce,Type_number,Type_name,Type_remark,Subtype_number,Subtype_name,Volume,section_number,section_name,group_poem_name,poem_name,poem_altname,poem_preface,author_name,author_id,prefact_text,poem_text,ckp_text_id
0,45,,,type-houwangqianchu,,,,後王錢俶,,,,卷8,,,,,,,,,,,
1,46,,p001,type-houwangqianchu_p001,,,,後王錢俶,,,,卷8,,,,宮中作（汝帖）,,,後王錢俶,,,,
