,index,poem_number,poem_number_in_type,file_name,Han,Ce,Type_number,Type_name,Type_remark,Subtype_number,Subtype_name,Volume,section_number,section_name,group_poem_name,poem_name,poem_altname,poem_preface,author_name,author_id,prefact_text,poem_text,ckp_text_id
0,32,,,type-xuanzonghuangdi,,,,宣宗皇帝,,,,卷4,,,,,,,,,,,
1,33,,p001,type-xuanzonghuangdi_p001,,,,宣宗皇帝,,,,卷4,,,,百丈山,,,宣宗皇帝,,,,
2,34,,p002,type-xuanzonghuangdi_p002,,,,宣宗皇帝,,,,卷4,,,,弔白居易,,,宣宗皇帝,,,,
3,35,,p003,type-xuanzonghuangdi_p003,,,,宣宗皇帝,,,,卷4,,,,幸華嚴寺,,,宣宗皇帝,,,,
4,36,,p004,type-xuanzonghuangdi_p004,,,,宣宗皇帝,,,,卷4,,,,重陽錫宴羣臣,,,宣宗皇帝,,,,
5,37,,p005,type-xuanzonghuangdi_p005,,,,宣宗皇帝,,,,卷4,,,,題涇縣水西寺,,,宣宗皇帝,,,,
6,38,,p006,type-xuanzonghuangdi_p006,,,,宣宗皇帝,,,,卷4,,,,瀑布聯句,,,宣宗皇帝,,,,
7,39,,p007,type-xuanzonghuangdi_p007,,,,宣宗皇帝,,,,卷4,,,,句,,,宣宗皇帝,,,,
