,index,poem_number,poem_number_in_type,file_name,Han,Ce,Type_number,Type_name,Type_remark,Subtype_number,Subtype_name,Volume,section_number,section_name,group_poem_name,poem_name,poem_altname,poem_preface,author_name,author_id,prefact_text,poem_text,ckp_text_id
0,1,,,type-shutaihouxushi,,,,蜀太后徐氏,,,,卷9,,,,,,,,,,,
1,2,,p001,type-shutaihouxushi_p001,,,,蜀太后徐氏,,,,卷9,,,,丈人觀,,,蜀太后徐氏,,,,
2,3,,p002,type-shutaihouxushi_p002,,,,蜀太后徐氏,,,,卷9,,,,玄都觀,,,蜀太后徐氏,,,,
3,4,,p003,type-shutaihouxushi_p003,,,,蜀太后徐氏,,,,卷9,,,,丈人觀謁先帝御容,,,蜀太后徐氏,,,,
4,5,,p004,type-shutaihouxushi_p004,,,,蜀太后徐氏,,,,卷9,,,,題金華宮,,,蜀太后徐氏,,,,
5,6,,p005,type-shutaihouxushi_p005,,,,蜀太后徐氏,,,,卷9,,,,丹景山至德寺,,,蜀太后徐氏,,,,
6,7,,p006,type-shutaihouxushi_p006,,,,蜀太后徐氏,,,,卷9,,,,題彭州陽平化,,,蜀太后徐氏,,,,
7,8,,p007,type-shutaihouxushi_p007,,,,蜀太后徐氏,,,,卷9,,,,三學山夜看聖燈,,,蜀太后徐氏,,,,
8,9,,p008,type-shutaihouxushi_p008,,,,蜀太后徐氏,,,,卷9,,,,題天迴驛,,,蜀太后徐氏,,,,
