file,embargo,status,datatype,title1,title2,author,date,licence,descriptionMain,descriptionSec,keywordsZh,keywordsEn,keywordsURI,language,creators,contributors,created,available,modified,publisher,format,conformsTo,version,collectionIDs,rights
CDF_IHEC_VI22_1_01_0001-alto.xml|CDF_IHEC_VI22_1_01_0002-alto.xml|CDF_IHEC_VI22_1_01_0004-alto.xml,,published,http://purl.org/coard/resource_type/c_18cf,Qimin yaoshu: front,齊民要術：前部,Jia;Sixie,2024,CC-BY-NC-SA-4.0,A book,一本書,中國|六朝|農書|植物,China|Six Dynasties|Agriculture|Plants,,lzh,賈思勰,Conceptualization-Funding acquisition-Investigation-Supervision-Visualization: Bizais-Lillig Marie (0000-0002-2426-2641)|Supervision: Lau-Suchet Soline (0000-0002-0920-1752)|Funding acquisition-Project Administration: BULAC (http://www.idref.fr/129621188/id)|Resources-Project Administration-Supervision--Data Curation-Visualization: IHEC-Collège de France (031909841)|Resources: Calfa,400-500,2024-08-30,,"CHI-KNOW-PO Corpus, COLLEX Project (Principal Investigators: Marie Bizais-Lillig and Soline Lau-Suchet; Funding Admistrator: BULAC; Resources: IHEC-Collège de France)","4 thread bound volumes; 18.5x12.5cm. 白口雙邊, 單魚尾, 一頁九行, 一行二十一字",TEI,,ID1|ID4,MBizais;ROLE_OWNER
CDF_IHEC_VI22_1_01_0005-alto.xml|CDF_IHEC_VI22_1_01_0006-alto.xml|CDF_IHEC_VI22_1_01_0007-alto.xml|CDF_IHEC_VI22_1_01_0008-alto.xml|CDF_IHEC_VI22_1_01_0009-alto.xml|CDF_IHEC_VI22_1_01_0010-alto.xml|CDF_IHEC_VI22_1_01_0011-alto.xml|CDF_IHEC_VI22_1_01_0012-alto.xml|CDF_IHEC_VI22_1_01_0013-alto.xml|CDF_IHEC_VI22_1_01_0014-alto.xml|CDF_IHEC_VI22_1_01_0015-alto.xml|CDF_IHEC_VI22_1_01_0016-alto.xml|CDF_IHEC_VI22_1_01_0017-alto.xml|CDF_IHEC_VI22_1_01_0018-alto.xml|CDF_IHEC_VI22_1_01_0019-alto.xml|CDF_IHEC_VI22_1_01_0020-alto.xml|CDF_IHEC_VI22_1_01_0021-alto.xml|CDF_IHEC_VI22_1_01_0022-alto.xml,,published,http://purl.org/coard/resource_type/c_18cf,Qimin yaoshu: prefaces,齊民要術：前序,Jia;Sixie,2024,CC-BY-NC-SA-4.0,A book,一本書,中國|六朝|農書|植物,China|Six Dynasties|Agriculture|Plants,,lzh,賈思勰,Conceptualization-Funding acquisition-Investigation-Supervision-Visualization: Bizais-Lillig Marie (0000-0002-2426-2641)|Supervision: Lau-Suchet Soline (0000-0002-0920-1752)|Funding acquisition-Project Administration: BULAC (http://www.idref.fr/129621188/id)|Resources-Project Administration-Supervision--Data Curation-Visualization: IHEC-Collège de France (031909841)|Resources: Calfa,400-500,2024-08-30,,"CHI-KNOW-PO Corpus, COLLEX Project (Principal Investigators: Marie Bizais-Lillig and Soline Lau-Suchet; Funding Admistrator: BULAC; Resources: IHEC-Collège de France)","4 thread bound volumes; 18.5x12.5cm. 白口雙邊, 單魚尾, 一頁九行, 一行二十一字",TEI,,ID1|ID4,MBizais;ROLE_OWNER
CDF_IHEC_VI22_1_01_0023-alto.xml|CDF_IHEC_VI22_1_01_0024-alto.xml|CDF_IHEC_VI22_1_01_0025-alto.xml|CDF_IHEC_VI22_1_01_0026-alto.xml|CDF_IHEC_VI22_1_01_0027-alto.xml|CDF_IHEC_VI22_1_01_0028-alto.xml|CDF_IHEC_VI22_1_01_0029-alto.xml|CDF_IHEC_VI22_1_01_0030-alto.xml|CDF_IHEC_VI22_1_01_0031-alto.xml|CDF_IHEC_VI22_1_01_0032-alto.xml|CDF_IHEC_VI22_1_01_0033-alto.xml|CDF_IHEC_VI22_1_01_0034-alto.xml|CDF_IHEC_VI22_1_01_0035-alto.xml|CDF_IHEC_VI22_1_01_0036-alto.xml|CDF_IHEC_VI22_1_01_0037-alto.xml|CDF_IHEC_VI22_1_01_0038-alto.xml|CDF_IHEC_VI22_1_01_0039-alto.xml|CDF_IHEC_VI22_1_01_0040-alto.xml|CDF_IHEC_VI22_1_01_0041-alto.xml,,published,http://purl.org/coard/resource_type/c_18cf,Qimin yaoshu: roll 1,齊民要術：卷一,Jia;Sixie,2024,CC-BY-NC-SA-4.0,A book,一本書,中國|六朝|農書|植物,China|Six Dynasties|Agriculture|Plants,,lzh,賈思勰,Conceptualization-Funding acquisition-Investigation-Supervision-Visualization: Bizais-Lillig Marie (0000-0002-2426-2641)|Supervision: Lau-Suchet Soline (0000-0002-0920-1752)|Funding acquisition-Project Administration: BULAC (http://www.idref.fr/129621188/id)|Resources-Project Administration-Supervision--Data Curation-Visualization: IHEC-Collège de France (031909841)|Resources: Calfa,400-500,2024-08-30,,"CHI-KNOW-PO Corpus, COLLEX Project (Principal Investigators: Marie Bizais-Lillig and Soline Lau-Suchet; Funding Admistrator: BULAC; Resources: IHEC-Collège de France)","4 thread bound volumes; 18.5x12.5cm. 白口雙邊, 單魚尾, 一頁九行, 一行二十一字",TEI,,ID1|ID4,MBizais;ROLE_OWNER
CDF_IHEC_VI22_1_01_0042-alto.xml|CDF_IHEC_VI22_1_01_0043-alto.xml|CDF_IHEC_VI22_1_01_0044-alto.xml|CDF_IHEC_VI22_1_01_0045-alto.xml|CDF_IHEC_VI22_1_01_0046-alto.xml|CDF_IHEC_VI22_1_01_0047-alto.xml|CDF_IHEC_VI22_1_01_0048-alto.xml|CDF_IHEC_VI22_1_01_0049-alto.xml|CDF_IHEC_VI22_1_01_0050-alto.xml|CDF_IHEC_VI22_1_01_0051-alto.xml|CDF_IHEC_VI22_1_01_0052-alto.xml|CDF_IHEC_VI22_1_01_0053-alto.xml|CDF_IHEC_VI22_1_01_0054-alto.xml|CDF_IHEC_VI22_1_01_0055-alto.xml|CDF_IHEC_VI22_1_01_0056-alto.xml|CDF_IHEC_VI22_1_01_0057-alto.xml|CDF_IHEC_VI22_1_01_0058-alto.xml|CDF_IHEC_VI22_1_01_0059-alto.xml|CDF_IHEC_VI22_1_01_0060-alto.xml|CDF_IHEC_VI22_1_01_0061-alto.xml|CDF_IHEC_VI22_1_01_0062-alto.xml|CDF_IHEC_VI22_1_01_0063-alto.xml|CDF_IHEC_VI22_1_01_0064-alto.xml|CDF_IHEC_VI22_1_01_0065-alto.xml,,published,http://purl.org/coard/resource_type/c_18cf,Qimin yaoshu: roll 2,齊民要術：卷二,Jia;Sixie,2024,CC-BY-NC-SA-4.0,A book,一本書,中國|六朝|農書|植物,China|Six Dynasties|Agriculture|Plants,,lzh,賈思勰,Conceptualization-Funding acquisition-Investigation-Supervision-Visualization: Bizais-Lillig Marie (0000-0002-2426-2641)|Supervision: Lau-Suchet Soline (0000-0002-0920-1752)|Funding acquisition-Project Administration: BULAC (http://www.idref.fr/129621188/id)|Resources-Project Administration-Supervision--Data Curation-Visualization: IHEC-Collège de France (031909841)|Resources: Calfa,400-500,2024-08-30,,"CHI-KNOW-PO Corpus, COLLEX Project (Principal Investigators: Marie Bizais-Lillig and Soline Lau-Suchet; Funding Admistrator: BULAC; Resources: IHEC-Collège de France)","4 thread bound volumes; 18.5x12.5cm. 白口雙邊, 單魚尾, 一頁九行, 一行二十一字",TEI,,ID1|ID4,MBizais;ROLE_OWNER
CDF_IHEC_VI22_1_01_0066-alto.xml|CDF_IHEC_VI22_1_01_0067-alto.xml|CDF_IHEC_VI22_1_01_0068-alto.xml|CDF_IHEC_VI22_1_01_0069-alto.xml|CDF_IHEC_VI22_1_01_0070-alto.xml|CDF_IHEC_VI22_1_01_0071-alto.xml|CDF_IHEC_VI22_1_01_0072-alto.xml|CDF_IHEC_VI22_1_01_0073-alto.xml|CDF_IHEC_VI22_1_01_0074-alto.xml|CDF_IHEC_VI22_1_01_0075-alto.xml|CDF_IHEC_VI22_1_01_0076-alto.xml|CDF_IHEC_VI22_1_01_0077-alto.xml|CDF_IHEC_VI22_1_01_0078-alto.xml|CDF_IHEC_VI22_1_01_0079-alto.xml|CDF_IHEC_VI22_1_01_0080-alto.xml|CDF_IHEC_VI22_1_01_0081-alto.xml|CDF_IHEC_VI22_1_01_0082-alto.xml|CDF_IHEC_VI22_1_01_0083-alto.xml|CDF_IHEC_VI22_1_01_0084-alto.xml|CDF_IHEC_VI22_1_01_0085-alto.xml|CDF_IHEC_VI22_1_01_0086-alto.xml|CDF_IHEC_VI22_1_01_0087-alto.xml|CDF_IHEC_VI22_1_01_0088-alto.xml|CDF_IHEC_VI22_1_01_0089-alto.xml|CDF_IHEC_VI22_1_01_0090-alto.xml|CDF_IHEC_VI22_1_02_0002-alto.xml,,published,http://purl.org/coard/resource_type/c_18cf,Qimin yaoshu: roll 3,齊民要術：卷三,Jia;Sixie,2024,CC-BY-NC-SA-4.0,A book,一本書,中國|六朝|農書|植物,China|Six Dynasties|Agriculture|Plants,,lzh,賈思勰,Conceptualization-Funding acquisition-Investigation-Supervision-Visualization: Bizais-Lillig Marie (0000-0002-2426-2641)|Supervision: Lau-Suchet Soline (0000-0002-0920-1752)|Funding acquisition-Project Administration: BULAC (http://www.idref.fr/129621188/id)|Resources-Project Administration-Supervision--Data Curation-Visualization: IHEC-Collège de France (031909841)|Resources: Calfa,400-500,2024-08-30,,"CHI-KNOW-PO Corpus, COLLEX Project (Principal Investigators: Marie Bizais-Lillig and Soline Lau-Suchet; Funding Admistrator: BULAC; Resources: IHEC-Collège de France)","4 thread bound volumes; 18.5x12.5cm. 白口雙邊, 單魚尾, 一頁九行, 一行二十一字",TEI,,ID1|ID4,MBizais;ROLE_OWNER
CDF_IHEC_VI22_1_02_0003-alto.xml|CDF_IHEC_VI22_1_02_0004-alto.xml|CDF_IHEC_VI22_1_02_0005-alto.xml|CDF_IHEC_VI22_1_02_0006-alto.xml|CDF_IHEC_VI22_1_02_0007-alto.xml|CDF_IHEC_VI22_1_02_0008-alto.xml|CDF_IHEC_VI22_1_02_0009-alto.xml|CDF_IHEC_VI22_1_02_0010-alto.xml|CDF_IHEC_VI22_1_02_0011-alto.xml|CDF_IHEC_VI22_1_02_0012-alto.xml|CDF_IHEC_VI22_1_02_0013-alto.xml|CDF_IHEC_VI22_1_02_0014-alto.xml|CDF_IHEC_VI22_1_02_0015-alto.xml|CDF_IHEC_VI22_1_02_0016-alto.xml|CDF_IHEC_VI22_1_02_0017-alto.xml|CDF_IHEC_VI22_1_02_0018-alto.xml|CDF_IHEC_VI22_1_02_0019-alto.xml,,published,http://purl.org/coard/resource_type/c_18cf,Qimin yaoshu: roll 4,齊民要術：卷四,Jia;Sixie,2024,CC-BY-NC-SA-4.0,A book,一本書,中國|六朝|農書|植物,China|Six Dynasties|Agriculture|Plants,,lzh,賈思勰,Conceptualization-Funding acquisition-Investigation-Supervision-Visualization: Bizais-Lillig Marie (0000-0002-2426-2641)|Supervision: Lau-Suchet Soline (0000-0002-0920-1752)|Funding acquisition-Project Administration: BULAC (http://www.idref.fr/129621188/id)|Resources-Project Administration-Supervision--Data Curation-Visualization: IHEC-Collège de France (031909841)|Resources: Calfa,400-500,2024-08-30,,"CHI-KNOW-PO Corpus, COLLEX Project (Principal Investigators: Marie Bizais-Lillig and Soline Lau-Suchet; Funding Admistrator: BULAC; Resources: IHEC-Collège de France)","4 thread bound volumes; 18.5x12.5cm. 白口雙邊, 單魚尾, 一頁九行, 一行二十一字",TEI,,ID1|ID4,MBizais;ROLE_OWNER
CDF_IHEC_VI22_1_02_0020-alto.xml|CDF_IHEC_VI22_1_02_0021-alto.xml|CDF_IHEC_VI22_1_02_0022-alto.xml|CDF_IHEC_VI22_1_02_0023-alto.xml|CDF_IHEC_VI22_1_02_0024-alto.xml|CDF_IHEC_VI22_1_02_0025-alto.xml|CDF_IHEC_VI22_1_02_0026-alto.xml|CDF_IHEC_VI22_1_02_0027-alto.xml|CDF_IHEC_VI22_1_02_0028-alto.xml|CDF_IHEC_VI22_1_02_0029-alto.xml|CDF_IHEC_VI22_1_02_0030-alto.xml|CDF_IHEC_VI22_1_02_0031-alto.xml|CDF_IHEC_VI22_1_02_0032-alto.xml|CDF_IHEC_VI22_1_02_0033-alto.xml|CDF_IHEC_VI22_1_02_0034-alto.xml|CDF_IHEC_VI22_1_02_0035-alto.xml|CDF_IHEC_VI22_1_02_0036-alto.xml|CDF_IHEC_VI22_1_02_0037-alto.xml|CDF_IHEC_VI22_1_02_0038-alto.xml|CDF_IHEC_VI22_1_02_0039-alto.xml|CDF_IHEC_VI22_1_02_0040-alto.xml|CDF_IHEC_VI22_1_02_0041-alto.xml|CDF_IHEC_VI22_1_02_0042-alto.xml,,published,http://purl.org/coard/resource_type/c_18cf,Qimin yaoshu: roll 5,齊民要術：卷五,Jia;Sixie,2024,CC-BY-NC-SA-4.0,A book,一本書,中國|六朝|農書|植物,China|Six Dynasties|Agriculture|Plants,,lzh,賈思勰,Conceptualization-Funding acquisition-Investigation-Supervision-Visualization: Bizais-Lillig Marie (0000-0002-2426-2641)|Supervision: Lau-Suchet Soline (0000-0002-0920-1752)|Funding acquisition-Project Administration: BULAC (http://www.idref.fr/129621188/id)|Resources-Project Administration-Supervision--Data Curation-Visualization: IHEC-Collège de France (031909841)|Resources: Calfa,400-500,2024-08-30,,"CHI-KNOW-PO Corpus, COLLEX Project (Principal Investigators: Marie Bizais-Lillig and Soline Lau-Suchet; Funding Admistrator: BULAC; Resources: IHEC-Collège de France)","4 thread bound volumes; 18.5x12.5cm. 白口雙邊, 單魚尾, 一頁九行, 一行二十一字",TEI,,ID1|ID4,MBizais;ROLE_OWNER
CDF_IHEC_VI22_1_02_0043-alto.xml|CDF_IHEC_VI22_1_02_0044-alto.xml|CDF_IHEC_VI22_1_02_0045-alto.xml|CDF_IHEC_VI22_1_02_0046-alto.xml|CDF_IHEC_VI22_1_02_0047-alto.xml|CDF_IHEC_VI22_1_02_0048-alto.xml|CDF_IHEC_VI22_1_02_0049-alto.xml|CDF_IHEC_VI22_1_02_0050-alto.xml|CDF_IHEC_VI22_1_02_0051-alto.xml|CDF_IHEC_VI22_1_02_0052-alto.xml|CDF_IHEC_VI22_1_02_0053-alto.xml|CDF_IHEC_VI22_1_02_0054-alto.xml|CDF_IHEC_VI22_1_02_0055-alto.xml|CDF_IHEC_VI22_1_02_0056-alto.xml|CDF_IHEC_VI22_1_02_0057-alto.xml|CDF_IHEC_VI22_1_02_0058-alto.xml|CDF_IHEC_VI22_1_02_0059-alto.xml|CDF_IHEC_VI22_1_02_0060-alto.xml|CDF_IHEC_VI22_1_02_0061-alto.xml|CDF_IHEC_VI22_1_02_0062-alto.xml|CDF_IHEC_VI22_1_02_0063-alto.xml|CDF_IHEC_VI22_1_02_0064-alto.xml|CDF_IHEC_VI22_1_02_0065-alto.xml|CDF_IHEC_VI22_1_02_0066-alto.xml|CDF_IHEC_VI22_1_02_0067-alto.xml|CDF_IHEC_VI22_1_02_0068-alto.xml|CDF_IHEC_VI22_1_02_0069-alto.xml|CDF_IHEC_VI22_1_02_0070-alto.xml|CDF_IHEC_VI22_1_02_0071-alto.xml|CDF_IHEC_VI22_1_03_0001-alto.xml|CDF_IHEC_VI22_1_03_0002-alto.xml,,published,http://purl.org/coard/resource_type/c_18cf,Qimin yaoshu: roll 6,齊民要術：卷六,Jia;Sixie,2024,CC-BY-NC-SA-4.0,A book,一本書,中國|六朝|農書|植物,China|Six Dynasties|Agriculture|Plants,,lzh,賈思勰,Conceptualization-Funding acquisition-Investigation-Supervision-Visualization: Bizais-Lillig Marie (0000-0002-2426-2641)|Supervision: Lau-Suchet Soline (0000-0002-0920-1752)|Funding acquisition-Project Administration: BULAC (http://www.idref.fr/129621188/id)|Resources-Project Administration-Supervision--Data Curation-Visualization: IHEC-Collège de France (031909841)|Resources: Calfa,400-500,2024-08-30,,"CHI-KNOW-PO Corpus, COLLEX Project (Principal Investigators: Marie Bizais-Lillig and Soline Lau-Suchet; Funding Admistrator: BULAC; Resources: IHEC-Collège de France)","4 thread bound volumes; 18.5x12.5cm. 白口雙邊, 單魚尾, 一頁九行, 一行二十一字",TEI,,ID1|ID4,MBizais;ROLE_OWNER
CDF_IHEC_VI22_1_03_0003-alto.xml|CDF_IHEC_VI22_1_03_0004-alto.xml|CDF_IHEC_VI22_1_03_0005-alto.xml|CDF_IHEC_VI22_1_03_0006-alto.xml|CDF_IHEC_VI22_1_03_0007-alto.xml|CDF_IHEC_VI22_1_03_0008-alto.xml|CDF_IHEC_VI22_1_03_0009-alto.xml|CDF_IHEC_VI22_1_03_0010-alto.xml|CDF_IHEC_VI22_1_03_0011-alto.xml|CDF_IHEC_VI22_1_03_0012-alto.xml|CDF_IHEC_VI22_1_03_0013-alto.xml|CDF_IHEC_VI22_1_03_0014-alto.xml|CDF_IHEC_VI22_1_03_0015-alto.xml|CDF_IHEC_VI22_1_03_0016-alto.xml|CDF_IHEC_VI22_1_03_0017-alto.xml|CDF_IHEC_VI22_1_03_0018-alto.xml|CDF_IHEC_VI22_1_03_0019-alto.xml|CDF_IHEC_VI22_1_03_0020-alto.xml|CDF_IHEC_VI22_1_03_0021-alto.xml|CDF_IHEC_VI22_1_03_0022-alto.xml|CDF_IHEC_VI22_1_03_0023-alto.xml|CDF_IHEC_VI22_1_03_0024-alto.xml|CDF_IHEC_VI22_1_03_0025-alto.xml|CDF_IHEC_VI22_1_03_0026-alto.xml|CDF_IHEC_VI22_1_03_0027-alto.xml|CDF_IHEC_VI22_1_03_0028-alto.xml|CDF_IHEC_VI22_1_03_0029-alto.xml|CDF_IHEC_VI22_1_03_0030-alto.xml|CDF_IHEC_VI22_1_03_0031-alto.xml,,published,http://purl.org/coard/resource_type/c_18cf,Qimin yaoshu: roll 7,齊民要術：卷七,Jia;Sixie,2024,CC-BY-NC-SA-4.0,A book,一本書,中國|六朝|農書|植物,China|Six Dynasties|Agriculture|Plants,,lzh,賈思勰,Conceptualization-Funding acquisition-Investigation-Supervision-Visualization: Bizais-Lillig Marie (0000-0002-2426-2641)|Supervision: Lau-Suchet Soline (0000-0002-0920-1752)|Funding acquisition-Project Administration: BULAC (http://www.idref.fr/129621188/id)|Resources-Project Administration-Supervision--Data Curation-Visualization: IHEC-Collège de France (031909841)|Resources: Calfa,400-500,2024-08-30,,"CHI-KNOW-PO Corpus, COLLEX Project (Principal Investigators: Marie Bizais-Lillig and Soline Lau-Suchet; Funding Admistrator: BULAC; Resources: IHEC-Collège de France)","4 thread bound volumes; 18.5x12.5cm. 白口雙邊, 單魚尾, 一頁九行, 一行二十一字",TEI,,ID1|ID4,MBizais;ROLE_OWNER
CDF_IHEC_VI22_1_03_0032-alto.xml|CDF_IHEC_VI22_1_03_0033-alto.xml|CDF_IHEC_VI22_1_03_0034-alto.xml|CDF_IHEC_VI22_1_03_0035-alto.xml|CDF_IHEC_VI22_1_03_0036-alto.xml|CDF_IHEC_VI22_1_03_0037-alto.xml|CDF_IHEC_VI22_1_03_0038-alto.xml|CDF_IHEC_VI22_1_03_0039-alto.xml|CDF_IHEC_VI22_1_03_0040-alto.xml|CDF_IHEC_VI22_1_03_0041-alto.xml|CDF_IHEC_VI22_1_03_0042-alto.xml|CDF_IHEC_VI22_1_03_0043-alto.xml|CDF_IHEC_VI22_1_03_0044-alto.xml|CDF_IHEC_VI22_1_03_0045-alto.xml|CDF_IHEC_VI22_1_03_0046-alto.xml|CDF_IHEC_VI22_1_03_0047-alto.xml|CDF_IHEC_VI22_1_03_0048-alto.xml|CDF_IHEC_VI22_1_03_0049-alto.xml|CDF_IHEC_VI22_1_03_0050-alto.xml|CDF_IHEC_VI22_1_03_0051-alto.xml|CDF_IHEC_VI22_1_03_0052-alto.xml|CDF_IHEC_VI22_1_03_0053-alto.xml|CDF_IHEC_VI22_1_03_0054-alto.xml|CDF_IHEC_VI22_1_03_0055-alto.xml|CDF_IHEC_VI22_1_03_0056-alto.xml|CDF_IHEC_VI22_1_03_0057-alto.xml|CDF_IHEC_VI22_1_03_0058-alto.xml|CDF_IHEC_VI22_1_03_0059-alto.xml|CDF_IHEC_VI22_1_03_0060-alto.xml|CDF_IHEC_VI22_1_03_0061-alto.xml|CDF_IHEC_VI22_1_03_0062-alto.xml|CDF_IHEC_VI22_1_03_0063-alto.xml|CDF_IHEC_VI22_1_03_0064-alto.xml|CDF_IHEC_VI22_1_03_0065-alto.xml|CDF_IHEC_VI22_1_04_0001-alto.xml,,published,http://purl.org/coard/resource_type/c_18cf,Qimin yaoshu: roll 8,齊民要術：卷八,Jia;Sixie,2024,CC-BY-NC-SA-4.0,A book,一本書,中國|六朝|農書|植物,China|Six Dynasties|Agriculture|Plants,,lzh,賈思勰,Conceptualization-Funding acquisition-Investigation-Supervision-Visualization: Bizais-Lillig Marie (0000-0002-2426-2641)|Supervision: Lau-Suchet Soline (0000-0002-0920-1752)|Funding acquisition-Project Administration: BULAC (http://www.idref.fr/129621188/id)|Resources-Project Administration-Supervision--Data Curation-Visualization: IHEC-Collège de France (031909841)|Resources: Calfa,400-500,2024-08-30,,"CHI-KNOW-PO Corpus, COLLEX Project (Principal Investigators: Marie Bizais-Lillig and Soline Lau-Suchet; Funding Admistrator: BULAC; Resources: IHEC-Collège de France)","4 thread bound volumes; 18.5x12.5cm. 白口雙邊, 單魚尾, 一頁九行, 一行二十一字",TEI,,ID1|ID4,MBizais;ROLE_OWNER
CDF_IHEC_VI22_1_04_0003-alto.xml|CDF_IHEC_VI22_1_04_0004-alto.xml|CDF_IHEC_VI22_1_04_0005-alto.xml|CDF_IHEC_VI22_1_04_0006-alto.xml|CDF_IHEC_VI22_1_04_0007-alto.xml|CDF_IHEC_VI22_1_04_0008-alto.xml|CDF_IHEC_VI22_1_04_0009-alto.xml|CDF_IHEC_VI22_1_04_0010-alto.xml|CDF_IHEC_VI22_1_04_0011-alto.xml|CDF_IHEC_VI22_1_04_0012-alto.xml|CDF_IHEC_VI22_1_04_0013-alto.xml|CDF_IHEC_VI22_1_04_0014-alto.xml|CDF_IHEC_VI22_1_04_0015-alto.xml|CDF_IHEC_VI22_1_04_0016-alto.xml|CDF_IHEC_VI22_1_04_0017-alto.xml|CDF_IHEC_VI22_1_04_0018-alto.xml|CDF_IHEC_VI22_1_04_0019-alto.xml|CDF_IHEC_VI22_1_04_0020-alto.xml|CDF_IHEC_VI22_1_04_0021-alto.xml|CDF_IHEC_VI22_1_04_0022-alto.xml|CDF_IHEC_VI22_1_04_0023-alto.xml|CDF_IHEC_VI22_1_04_0024-alto.xml|CDF_IHEC_VI22_1_04_0025-alto.xml|CDF_IHEC_VI22_1_04_0026-alto.xml|CDF_IHEC_VI22_1_04_0027-alto.xml|CDF_IHEC_VI22_1_04_0028-alto.xml|CDF_IHEC_VI22_1_04_0029-alto.xml|CDF_IHEC_VI22_1_04_0030-alto.xml|CDF_IHEC_VI22_1_04_0031-alto.xml|CDF_IHEC_VI22_1_04_0032-alto.xml|CDF_IHEC_VI22_1_04_0033-alto.xml|CDF_IHEC_VI22_1_04_0034-alto.xml|CDF_IHEC_VI22_1_04_0035-alto.xml|CDF_IHEC_VI22_1_04_0036-alto.xml|CDF_IHEC_VI22_1_04_0037-alto.xml|CDF_IHEC_VI22_1_04_0038-alto.xml|CDF_IHEC_VI22_1_04_0039-alto.xml,,published,http://purl.org/coard/resource_type/c_18cf,Qimin yaoshu: roll 9,齊民要術：卷九,Jia;Sixie,2024,CC-BY-NC-SA-4.0,A book,一本書,中國|六朝|農書|植物,China|Six Dynasties|Agriculture|Plants,,lzh,賈思勰,Conceptualization-Funding acquisition-Investigation-Supervision-Visualization: Bizais-Lillig Marie (0000-0002-2426-2641)|Supervision: Lau-Suchet Soline (0000-0002-0920-1752)|Funding acquisition-Project Administration: BULAC (http://www.idref.fr/129621188/id)|Resources-Project Administration-Supervision--Data Curation-Visualization: IHEC-Collège de France (031909841)|Resources: Calfa,400-500,2024-08-30,,"CHI-KNOW-PO Corpus, COLLEX Project (Principal Investigators: Marie Bizais-Lillig and Soline Lau-Suchet; Funding Admistrator: BULAC; Resources: IHEC-Collège de France)","4 thread bound volumes; 18.5x12.5cm. 白口雙邊, 單魚尾, 一頁九行, 一行二十一字",TEI,,ID1|ID4,MBizais;ROLE_OWNER
CDF_IHEC_VI22_1_04_0040-alto.xml|CDF_IHEC_VI22_1_04_0041-alto.xml|CDF_IHEC_VI22_1_04_0042-alto.xml|CDF_IHEC_VI22_1_04_0043-alto.xml|CDF_IHEC_VI22_1_04_0044-alto.xml|CDF_IHEC_VI22_1_04_0045-alto.xml|CDF_IHEC_VI22_1_04_0046-alto.xml|CDF_IHEC_VI22_1_04_0047-alto.xml|CDF_IHEC_VI22_1_04_0048-alto.xml|CDF_IHEC_VI22_1_04_0049-alto.xml|CDF_IHEC_VI22_1_04_0050-alto.xml|CDF_IHEC_VI22_1_04_0051-alto.xml|CDF_IHEC_VI22_1_04_0052-alto.xml|CDF_IHEC_VI22_1_04_0053-alto.xml|CDF_IHEC_VI22_1_04_0054-alto.xml|CDF_IHEC_VI22_1_04_0055-alto.xml|CDF_IHEC_VI22_1_04_0056-alto.xml|CDF_IHEC_VI22_1_04_0057-alto.xml|CDF_IHEC_VI22_1_04_0058-alto.xml|CDF_IHEC_VI22_1_04_0059-alto.xml|CDF_IHEC_VI22_1_04_0060-alto.xml|CDF_IHEC_VI22_1_04_0061-alto.xml|CDF_IHEC_VI22_1_04_0062-alto.xml|CDF_IHEC_VI22_1_04_0063-alto.xml|CDF_IHEC_VI22_1_04_0064-alto.xml|CDF_IHEC_VI22_1_04_0065-alto.xml|CDF_IHEC_VI22_1_04_0066-alto.xml|CDF_IHEC_VI22_1_04_0067-alto.xml|CDF_IHEC_VI22_1_04_0068-alto.xml|CDF_IHEC_VI22_1_04_0069-alto.xml|CDF_IHEC_VI22_1_04_0070-alto.xml|CDF_IHEC_VI22_1_04_0071-alto.xml|CDF_IHEC_VI22_1_04_0072-alto.xml|CDF_IHEC_VI22_1_04_0073-alto.xml|CDF_IHEC_VI22_1_04_0074-alto.xml|CDF_IHEC_VI22_1_04_0075-alto.xml|CDF_IHEC_VI22_1_04_0076-alto.xml|CDF_IHEC_VI22_1_04_0077-alto.xml|CDF_IHEC_VI22_1_04_0078-alto.xml|CDF_IHEC_VI22_1_04_0079-alto.xml|CDF_IHEC_VI22_1_04_0080-alto.xml|CDF_IHEC_VI22_1_04_0081-alto.xml|CDF_IHEC_VI22_1_04_0082-alto.xml|CDF_IHEC_VI22_1_04_0083-alto.xml|CDF_IHEC_VI22_1_04_0084-alto.xml|CDF_IHEC_VI22_1_04_0085-alto.xml|CDF_IHEC_VI22_1_04_0086-alto.xml|CDF_IHEC_VI22_1_04_0087-alto.xml|CDF_IHEC_VI22_1_04_0088-alto.xml,,published,http://purl.org/coard/resource_type/c_18cf,Qimin yaoshu: roll 10,齊民要術：卷十,Jia;Sixie,2024,CC-BY-NC-SA-4.0,A book,一本書,中國|六朝|農書|植物,China|Six Dynasties|Agriculture|Plants,,lzh,賈思勰,Conceptualization-Funding acquisition-Investigation-Supervision-Visualization: Bizais-Lillig Marie (0000-0002-2426-2641)|Supervision: Lau-Suchet Soline (0000-0002-0920-1752)|Funding acquisition-Project Administration: BULAC (http://www.idref.fr/129621188/id)|Resources-Project Administration-Supervision--Data Curation-Visualization: IHEC-Collège de France (031909841)|Resources: Calfa,400-500,2024-08-30,,"CHI-KNOW-PO Corpus, COLLEX Project (Principal Investigators: Marie Bizais-Lillig and Soline Lau-Suchet; Funding Admistrator: BULAC; Resources: IHEC-Collège de France)","4 thread bound volumes; 18.5x12.5cm. 白口雙邊, 單魚尾, 一頁九行, 一行二十一字",TEI,,ID1|ID4,MBizais;ROLE_OWNER
CDF_IHEC_VI22_1_04_0089-alto.xml|CDF_IHEC_VI22_1_04_0090-alto.xml|CDF_IHEC_VI22_1_04_0091-alto.xml|CDF_IHEC_VI22_1_04_0092-alto.xml,,published,http://purl.org/coard/resource_type/c_18cf,Qimin yaoshu: back,齊民要術：後部,Jia;Sixie,2024,CC-BY-NC-SA-4.0,A book,一本書,中國|六朝|農書|植物,China|Six Dynasties|Agriculture|Plants,,lzh,賈思勰,Conceptualization-Funding acquisition-Investigation-Supervision-Visualization: Bizais-Lillig Marie (0000-0002-2426-2641)|Supervision: Lau-Suchet Soline (0000-0002-0920-1752)|Funding acquisition-Project Administration: BULAC (http://www.idref.fr/129621188/id)|Resources-Project Administration-Supervision--Data Curation-Visualization: IHEC-Collège de France (031909841)|Resources: Calfa,400-500,2024-08-30,,"CHI-KNOW-PO Corpus, COLLEX Project (Principal Investigators: Marie Bizais-Lillig and Soline Lau-Suchet; Funding Admistrator: BULAC; Resources: IHEC-Collège de France)","4 thread bound volumes; 18.5x12.5cm. 白口雙邊, 單魚尾, 一頁九行, 一行二十一字",TEI,,ID1|ID4,MBizais;ROLE_OWNER
