Volume,Volume_number,Title_number,Title
敘,0,,毛詩草木鳥獸蟲魚疏敘
卷上,1,,
卷上,1,1,方秉蕳兮
卷上,1,2,采采芣苢
卷上,1,3,言采其蝱
卷上,1,4,中谷有蓷
卷上,1,5,集于苞杞
卷上,1,6,言采其藚
卷上,1,7,蔦與女蘿
卷上,1,8,有蒲與荷
卷上,1,9,參差荇菜
卷上,1,10,于以采蘋
卷上,1,11,于以采藻
卷上,1,12,薄采其茆
卷上,1,13,蒹葭蒼蒼
卷上,1,14,菉竹漪漪
卷上,1,15,苕之華
卷上,1,16,隰有游龍
卷上,1,17,食野之苹
卷上,1,18,于以采蘩
卷上,1,19,菁菁者莪
卷上,1,20,言刈其蔞
卷上,1,21,食野之蒿
卷上,1,22,采采卷耳
卷上,1,23,贈之以芍藥
卷上,1,24,采葑采菲
卷上,1,25,言采其蕨
卷上,1,26,言采其薇
卷上,1,27,言采其葍
卷上,1,28,薄言采芑
卷上,1,29,誰謂荼苦
卷上,1,30,匏有苦葉
卷上,1,31,邛有旨苕
卷上,1,32,言采其莫
卷上,1,33,莫莫葛藟
卷上,1,34,視爾如荍
卷上,1,35,北山有萊
卷上,1,36,取蕭祭脂
卷上,1,37,白茅包之
卷上,1,38,可以漚紵
卷上,1,39,邛有旨鷊
卷上,1,40,南山有臺
卷上,1,41,茹藘在阪
卷上,1,42,白華菅兮
卷上,1,43,蘝蔓于野
卷上,1,44,匪莪伊蔚
卷上,1,45,隰有萇楚
卷上,1,46,芃蘭之支
卷上,1,47,浸彼苞稂
卷上,1,48,言采其蓫
卷上,1,49,梓椅梧桐
卷上,1,50,有條有梅
卷上,1,51,北山有枻
卷上,1,52,常棣
卷上,1,53,爰有樹檀（附隰有六駮）
卷上,1,54,柞棫拔矣
卷上,1,55,隰有杞夷
卷上,1,56,隰有杻
卷上,1,57,其灌其栵
卷上,1,58,其檉其椐
卷上,1,59,山有樞
卷上,1,60,山有栲
卷上,1,61,集于苞栩
卷上,1,62,無浸穫薪
卷上,1,63,無折我樹杞
卷上,1,64,其下維穀
卷上,1,65,榛楛濟濟
卷上,1,66,揚之水不流東蒲
卷上,1,67,蔽芾其樗
卷上,1,68,椒聊之實
卷上,1,69,山有苞櫟
卷上,1,70,食鬱及薁
卷上,1,71,樹之榛栗
卷上,1,72,摽有梅
卷上,1,73,蔽芾甘棠
卷上,1,74,唐棣之華
卷上,1,75,隰有樹檖
卷上,1,76,南山有枸
卷上,1,77,顏如舜華
卷上,1,78,采荼薪樗
卷上,1,79,唯筍及蒲
卷上,1,80,投我以木瓜
卷上,1,81,食野之苓
卷上,1,82,浸彼苞蓍
卷下,2,,
卷下,2,1,鳳皇于飛
卷下,2,2,鶴鳴于九皋
卷下,2,3,鸛鳴于垤
卷下,2,4,鴥彼晨風
卷下,2,5,鴥彼飛隼
卷下,2,6,有集維鷮
卷下,2,7,關關雎鳩
卷下,2,8,鳲鳩在桑
卷下,2,9,宛彼鳴鳩
卷下,2,10,翩翩者鵻
卷下,2,11,脊令在原
卷下,2,12,黄鳥于飛
卷下,2,13,鴟鴞
卷下,2,14,交交桑扈
卷下,2,15,肇允彼桃蟲
卷下,2,16,值其鷺羽
卷下,2,17,維鵜在梁
卷下,2,18,鴻飛遵渚
卷下,2,19,肅肅鴇羽
卷下,2,20,翩彼飛鴞
卷下,2,21,流離之子
卷下,2,22,麟之趾
卷下,2,23,于嗟乎騶虞
卷下,2,24,有熊有罷
卷下,2,25,羔裴豹飾
卷下,2,26,獻其貔皮
卷下,2,27,狼跋其胡
卷下,2,28,教猱升木
卷下,2,29,有鱣有鮪
卷下,2,30,維魴及鱮
卷下,2,31,魚麗于罶魴鱧
卷下,2,32,九罭之魚鱒魴
卷下,2,33,魚麗于罶鱨鯊
卷下,2,34,象弭魚服
卷下,2,35,鼉鼓逢逢
卷下,2,36,成是貝錦
卷下,2,37,螽斯
卷下,2,38,喓喓草蟲
卷下,2,39,趯趯阜螽
卷下,2,40,莎雞振羽
卷下,2,41,去其螟螣及其蟊賊
卷下,2,42,螟蛉有子
卷下,2,43,蟋蟀在堂
卷下,2,44,蜉蝣之羽
卷下,2,45,如蜩如螗
卷下,2,46,伊威在室
卷下,2,47,蟰蛸在戶
卷下,2,48,碩鼠
卷下,2,49,如鬼如蜮
卷下,2,50,卷髮如蠆
卷下,2,51,胡為虺蜴
卷下,2,52,領如蝤蠐
卷下,2,53,弋鳧與鴈
卷下,2,54,野有死麇
卷下,2,55,駉駉牡馬
卷下,2,56,魯詩
卷下,2,57,齊詩
卷下,2,58,韓詩
卷下,2,59,毛詩
