Volume,Volume_number,Title_number,Title
,0,1,齋民要術
校刊敘,1,,校刊敘
校刊敘,1,1,校刊齊民要術商例
校刊敘,1,2,齊民要術序
校刊敘,1,3,雜說
卷第一,2,,
卷第一,2,1,耕田第一
卷第一,2,2,收種第二
卷第一,2,3,種穀第三
卷第二,3,,
卷第二,3,1,黍稼第四
卷第二,3,2,梁秫第五
卷第二,3,3,大豆第六
卷第二,3,4,小豆第七
卷第二,3,5,種麻第八
卷第二,3,6,種麻子第九
卷第二,3,7,大小麥第十
卷第二,3,8,水稻第十一
卷第二,3,9,旱稻第十二
卷第二,3,10,胡麻第十三
卷第二,3,11,種瓜第十四
卷第二,3,12,種瓠第十五
卷第二,3,13,種芋第十六
卷第三,4,,
卷第三,4,1,種葵第十七
卷第三,4,2,蔓菁第十八
卷第三,4,3,種蒜第十九
卷第三,4,4,種䪥第二十
卷第三,4,5,種蔥第二十一
卷第三,4,6,種韭第二十二
卷第三,4,7,種蜀芥芸臺芥子第二十三
卷第三,4,8,種胡荽第二十四
卷第三,4,9,種蘭香第二十五
卷第三,4,10,桂蓼第二十六
卷第三,4,11,種薑第二十七
卷第三,4,12,種囊荷芹麋第二十八
卷第三,4,13,種苜蓿第二十九
卷第三,4,14,雜說第三十
卷第四,5,,
卷第四,5,1,園籬第三十一
卷第四,5,2,栽樹第三十二
卷第四,5,3,種棗第三十三
卷第四,5,4,種桃第三十四
卷第四,5,5,種李第三十五
卷第四,5,6,種梅杏第三十六
卷第四,5,7,種梨第三十七
卷第四,5,8,種栗第三十八
卷第四,5,9,柰林檎第三十九
卷第四,5,10,種補第四十
卷第四,5,11,安石榴第四十一
卷第四,5,12,種木瓜第四十二
卷第四,5,13,種椒第四十三
卷第四,5,14,種茱萸第四十四
卷第五,6,,
卷第五,6,1,種桑祐第四十五
卷第五,6,2,種榆白楊第四十六
卷第五,6,3,種棠第四十七
卷第五,6,4,種穀楮第四十八
卷第五,6,5,種漆第四十九
卷第五,6,6,種槐柳椒梓梧柞第五十
卷第五,6,7,種竹第五十一
卷第五,6,8,種紅藍花椸子第五十二
卷第五,6,9,種藍第五十三
卷第五,6,10,種紫草第五十四
卷第五,6,11,伐木第五十五
卷第六,7,,
卷第六,7,1,養牛馬驢螺第五十六
卷第六,7,2,養羊第五十七
卷第六,7,3,養豬第五十八
卷第六,7,4,養雞第五十九
卷第六,7,5,養鴟鴨第六十
卷第六,7,6,養魚第六十一
卷第七,8,,
卷第七,8,1,貨殖第六十二
卷第七,8,2,塗甕第六十三
卷第七,8,3,造神麴并酒第六十四
卷第七,8,4,白醪麴第六十五
卷第七,8,5,笑麴餅酒第六十六
卷第七,8,6,法酒第六十七
卷第八,9,,
卷第八,9,1,黃衣黃蒸及蘖子第六十八
卷第八,9,2,常滿鹽花鹽第六十九
卷第八,9,3,作醬法第七十
卷第八,9,4,作酢第七十一
卷第八,9,5,作豉第七十二
卷第八,9,6,八和齏第七十三
卷第八,9,7,作魚鮓第七十四
卷第八,9,8,脯腊第七十五
卷第八,9,9,羹臛法第七十六
卷第八,9,10,蒸集法第七十七
卷第八,9,11,脰膾煎消法第七十八
卷第八,9,12,葅綠第七十九
卷第九,10,,
卷第九,10,1,炙法第八十
卷第九,10,2,炙豬法
卷第九,10,3,奉炙
卷第九,10,4,脯炙
卷第九,10,5,肝炙
卷第九,10,6,牛肱炙
卷第九,10,7,灌腸法
卷第九,10,8,食經曰作豉丸炙法
卷第九,10,9,牖炙純法
卷第九,10,10,擣炙法
卷第九,10,11,銜炙法
卷第九,10,12,作餅炙法
卷第九,10,13,釀炙白魚法
卷第九,10,14,牖炙法
卷第九,10,15,豬肉酢法
卷第九,10,16,食經曰睽炙
卷第九,10,17,擣炙
卷第九,10,18,餅炙
卷第九,10,19,範炙
卷第九,10,20,炙蛇
卷第九,10,21,炙蟰
卷第九,10,22,炙車熬
卷第九,10,23,炙魚
卷第九,10,24,作闢奧糟苞第八十一
卷第九,10,25,作闢肉法
卷第九,10,26,作奧肉法
卷第九,10,27,作糟肉法
卷第九,10,28,苞肉法
卷第九,10,29,食經曰作大曜
卷第九,10,30,食次曰苞牒法
卷第九,10,31,餅法第八十二
卷第九,10,32,食經曰作餅酵法
卷第九,10,33,作白餅法
卷第九,10,34,作燒餅法
卷第九,10,35,髓餅法
卷第九,10,36,食次曰棃
卷第九,10,37,膏環
卷第九,10,38,鷄鴨子餅
卷第九,10,39,細瓊餅載餅
卷第九,10,40,辭飾
卷第九,10,41,水引傳飽法
卷第九,10,42,切麵粥
卷第九,10,43,粉餅法
卷第九,10,44,脈肉餅法
卷第九,10,45,治麵初？
卷第九,10,46,椈糧法第八十三
卷第九,10,47,食經云粟黍法
卷第九,10,48,食次曰糧
卷第九,10,49,煮糗第八十四
卷第九,10,50,煮糗
卷第九,10,51,煮醴酪第八十五
卷第九,10,52,煮醴酪
卷第九,10,53,治釜令不淪法
卷第九,10,54,煮醴法
卷第九,10,55,煮杏酪粥法
卷第九,10,56,飧飯第八十六
卷第九,10,57,作粟須法
卷第九,10,58,折粟米法
卷第九,10,59,作寒食漿法
卷第九,10,60,治旱稻赤米令飯白法
卷第九,10,61,食經曰作麵飯法
卷第九,10,62,作粳米誤精法
卷第九,10,63,粳米棗精法
卷第九,10,64,菰米飯法
卷第九,10,65,胡飯法
卷第九,10,66,素食第八十七
卷第九,10,67,食次曰蔥誰羹法
卷第九,10,68,瓠羹
卷第九,10,69,油豉
卷第九,10,70,膏煎紫菜
卷第九,10,71,薤白蒸
卷第九,10,72,臘
卷第九,10,73,寧薑
卷第九,10,74,焦瓜瓠法
卷第九,10,75,又焦漢瓜法
卷第九,10,76,焦菌
卷第九,10,77,焦都子法
卷第九,10,78,作菹藏生菜法第八十八
卷第九,10,79,作湯菹法
卷第九,10,80,䖆菹法
卷第九,10,81,作卒菹法
卷第九,10,82,藏生菜法
卷第九,10,83,食經作葵菹法
卷第九,10,84,作菘鹹菹法
卷第九,10,85,作酢菹法
卷第九,10,86,作菹消法
卷第九,10,87,蒲菹
卷第九,10,88,食經藏瓜法
卷第九,10,89,食經藏越瓜法
卷第九,10,90,食經藏梅瓜法
卷第九,10,91,食經曰樂安令徐肅藏瓜法
卷第九,10,92,食次曰女麴
卷第九,10,93,釀瓜菹酒法
卷第九,10,94,瓜菹法
卷第九,10,95,瓜芥菹
卷第九,10,96,湯菹法
卷第九,10,97,苦笑紫菜菹法
卷第九,10,98,竹菜菹法
卷第九,10,99,載菹法
卷第九,10,100,菘根橀菹法
卷第九,10,101,熯
卷第九,10,102,胡芹小蒜菹法
卷第九,10,103,菘根蘿齒菹法
卷第九,10,104,紫菜菹法
卷第九,10,105,窒薑法
卷第九,10,106,梅瓜法
卷第九,10,107,梨菹法
卷第九,10,108,木耳菹
卷第九,10,109,處菹法
卷第九,10,110,蕨
卷第九,10,111,食經曰藏蕨法
卷第九,10,112,蕨菹
卷第九,10,113,荇
卷第九,10,114,暢鋪第八十九
卷第九,10,115,煮白暢法
卷第九,10,116,黑陽法
卷第九,10,117,曉珥暢法
卷第九,10,118,煮鋪法
卷第九,10,119,食經作飴法
卷第九,10,120,食次曰白繭糲法
卷第九,10,121,黃繭糠
卷第九,10,122,煮膠第九十
卷第九,10,123,煮膠法
卷第九,10,124,筆墨第九十一
卷第九,10,125,筆法
卷第九,10,126,合墨法
卷第十,11,,
卷第十,11,1,五欒果蓏菜茹非中國物者第九上二
卷第十,11,2,稻
卷第十,11,3,禾
卷第十,11,4,麥
卷第十,11,5,豆
卷第十,11,6,東墻
卷第十,11,7,果蓏
卷第十,11,8,棗
卷第十,11,9,桃
卷第十,11,10,李
卷第十,11,11,棃
卷第十,11,12,柰
卷第十,11,13,樻
卷第十,11,14,橘
卷第十,11,15,甘
卷第十,11,16,神
卷第十,11,17,根
卷第十,11,18,栗
卷第十,11,19,桃杷
卷第十,11,20,槔
卷第十,11,21,甘燕
卷第十,11,22,棪
卷第十,11,23,茂
卷第十,11,24,諸
卷第十,11,25,？
卷第十,11,26,楊梅
卷第十,11,27,沙棠
卷第十,11,28,相
卷第十,11,29,椰
卷第十,11,30,櫍䙏
卷第十,11,31,廉薑
卷第十,11,32,枸櫟
卷第十,11,33,鬼目
卷第十,11,34,椒攬
卷第十,11,35,龍眼
卷第十,11,36,椹
卷第十,11,37,荔支
卷第十,11,38,益智
卷第十,11,39,梱
卷第十,11,40,子
卷第十,11,41,豆蔻
卷第十,11,42,慎
卷第十,11,43,餘甘
卷第十,11,44,齒子
卷第十,11,45,邑樵
卷第十,11,46,扶留
卷第十,11,47,櫍梱
卷第十,11,48,菜茹
卷第十,11,49,竹
卷第十,11,50,筍
卷第十,11,51,荼
卷第十,11,52,蒿一
卷第十,11,53,菖蒲
卷第十,11,54,芸
卷第十,11,55,莪蒿
卷第十,11,56,菑
卷第十,11,57,梓
卷第十,11,58,土瓜
卷第十,11,59,苕
卷第十,11,60,薺
卷第十,11,61,藻
卷第十,11,62,？
卷第十,11,63,蓏
卷第十,11,64,羊蹏
卷第十,11,65,菟葵
卷第十,11,66,鹿豆
卷第十,11,67,蘇
卷第十,11,68,棃
卷第十,11,69,蒿
卷第十,11,70,廉
卷第十,11,71,遽疏
卷第十,11,72,芙
卷第十,11,73,疏
卷第十,11,74,發蕪
卷第十,11,75,隱葱
卷第十,11,76,守氣
卷第十,11,77,地榆
卷第十,11,78,人莧
卷第十,11,79,薪
卷第十,11,80,鹿葱
卷第十,11,81,萋蒿
卷第十,11,82,藏
卷第十,11,83,藄
卷第十,11,84,覆益
卷第十,11,85,翹搖
卷第十,11,86,烏蓲
卷第十,11,87,茶
卷第十,11,88,荊葵
卷第十,11,89,竊衣
卷第十,11,90,東風
卷第十,11,91,草
卷第十,11,92,英
卷第十,11,93,嬉
卷第十,11,94,昔
卷第十,11,95,薪
卷第十,11,96,木
卷第十,11,97,或
卷第十,11,98,櫟
卷第十,11,99,稼也
卷第十,11,100,桂
卷第十,11,101,木緜
卷第十,11,102,桑
卷第十,11,103,棠棣
卷第十,11,104,仙樹
卷第十,11,105,莎木
卷第十,11,106,樂多
卷第十,11,107,細
卷第十,11,108,娑羅
卷第十,11,109,椐
卷第十,11,110,杜芳
卷第十,11,111,摩廚
卷第十,11,112,都句
卷第十,11,113,木豆
卷第十,11,114,木堇
卷第十,11,115,木密
卷第十,11,116,枳秬
卷第十,11,117,亢
卷第十,11,118,君遷
卷第十,11,119,古度
卷第十,11,120,繫彌
卷第十,11,121,都咸
卷第十,11,122,都掬
卷第十,11,123,夫編
卷第十,11,124,一樹
卷第十,11,125,州樹
卷第十,11,126,前樹
卷第十,11,127,石南
卷第十,11,128,國樹
卷第十,11,129,都
卷第十,11,130,極
卷第十,11,131,梓棪
卷第十,11,132,尊母
卷第十,11,133,五子
卷第十,11,134,白緣
卷第十,11,135,烏曰
卷第十,11,136,都鼠
齊民更術後序,12,,齊民更術後序
