structure_index,structure_only,match,toc_only,toc_number,structure_approximate_match,toc_approximate_match
0,,帝京篇十首,,1,,
1,,飲馬長城宿行,,2,,
2,,執契靜三邊,,3,,
3,,正日臨朝,,4,,
4,,幸武功慶善宮,,5,,
5,,過舊宅二首,,6,,
6,,還俠述懷,,7,,
7,,重幸武功,,8,,
8,,經破薛舉戰地,,9,,
9,,入漳關,,10,,
10,,於北平作,,11,,
11,,遼城望月,,12,,
12,,觀妖氛滅,,13,,
13,,密翠斑紅芳華花柳即目川岫聊以命篇,,14,,
14,,春日玄武門宴羣臣,,15,,
15,,登三臺言志,,16,,
16,,朝倫,,17,,
17,,渭濵,,18,,
18,,出獵,,19,,
19,,冬狩,,20,,
20,,春日望海,,21,,
21,,元日,,22,,
22,,初春登樓即目觀作述懷,,23,,
23,,臨洛水,,24,,
24,,歌,,25,,
25,,望終南山,,26,,
26,,儀鸞殿早秋,,27,,
27,,秋日即目,,28,,
28,,山閣晚秋,,29,,
29,,首春,,30,,
30,,初晴落景,,31,,
31,,初夏,,32,,
32,,度秋,,33,,
33,,秋日穀庾信體,,34,,
34,,賦尚書,,35,,
35,,秋暮言志,,36,,
36,,喜雪,,37,,
37,,詠司馬彪續漢志,,38,,
38,,詠風,,39,,
63,,詠雨,,40,,
40,,詠雪,,41,,
41,,賦得夏首啓節,,42,,
42,,賦得櫻桃,,43,,
43,,賦得李,,44,,
44,,賦得浮橋,,45,,
45,,賦得白日半,,46,,
46,,置酒坐飛閣,,47,,
47,,宋芙蓉,,48,,
48,,傷遼東戰亡,,49,,
49,,月晦,,50,,
50,,秋日,,51,,
51,,率微宮,,52,,
52,,謁幷州大興國寺詩,,53,,
53,,詠興國寺佛殷前嶠,,54,,
54,,望送魏微葬,,55,,
55,,憂,,56,,
56,,冬日臨昆明池,,57,,
57,,望雪,,58,,
58,,守歲,,59,,
59,,除夜,,60,,
60,,初秋夜坐,,61,,
61,,秋日二首,,62,,
62,,冬宵各為四韻,,63,,
73,,,,64,詠桃,詠雨
64,,賦得含峰雲,,65,,
65,,三層閣上置音聲,,66,,
66,,遠山澄碧霧,,67,,
67,,賦得花庭霧,,68,,
68,,春池柳,,69,,
69,,芳蘭,,70,,
70,,賦得殘菊,,71,,
71,,賦秋日懸清光賜房玄齡,,72,,
72,,堯）,,73,,
82,,,,74,詠弓,詠桃
74,,賦簾,,75,,
75,,詠烏代陳師道,,76,,
76,,詠飲馬,,77,,
77,,宴中山,,78,,
78,,餞中書侍郎來濟,,79,,
79,,深悲黃,,80,,
80,,於太原召侍臣賜宴守歲,,81,,
81,,詠燭二首,,82,,
,,,詠弓,83,,
83,,賦得早雁出雲鳴,,84,,
84,,賜蕭瑀,,85,,
85,,賜房玄歠,,86,,
86,,遼東山夜臨秋,,87,,
87,,賜魏徵詩,,88,,
88,,兩儀殿賦柏梁體,,89,,
89,,賦得臨池柳,,90,,
90,,賦得臨池竹,,91,,
91,,賦得弱柳鳴秋蟬,,92,,
92,,探得李,,93,,
93,,詠小山,,94,,
